-- Merging decision tree log ---
manifest
ADDED from Z:\Andhamil\Code\Android-Studio-Projects\po00000_andhamilnoolgal_android\app\src\main\AndroidManifest.xml:2:1-64:12
	package
		ADDED from Z:\Andhamil\Code\Android-Studio-Projects\po00000_andhamilnoolgal_android\app\src\main\AndroidManifest.xml:3:5-45
		INJECTED from Z:\Andhamil\Code\Android-Studio-Projects\po00000_andhamilnoolgal_android\app\src\main\AndroidManifest.xml
		INJECTED from Z:\Andhamil\Code\Android-Studio-Projects\po00000_andhamilnoolgal_android\app\src\main\AndroidManifest.xml
	android:versionName
		ADDED from Z:\Andhamil\Code\Android-Studio-Projects\po00000_andhamilnoolgal_android\app\src\main\AndroidManifest.xml:5:5-35
		INJECTED from Z:\Andhamil\Code\Android-Studio-Projects\po00000_andhamilnoolgal_android\app\src\main\AndroidManifest.xml
		INJECTED from Z:\Andhamil\Code\Android-Studio-Projects\po00000_andhamilnoolgal_android\app\src\main\AndroidManifest.xml
	android:versionCode
		ADDED from Z:\Andhamil\Code\Android-Studio-Projects\po00000_andhamilnoolgal_android\app\src\main\AndroidManifest.xml:4:5-29
		INJECTED from Z:\Andhamil\Code\Android-Studio-Projects\po00000_andhamilnoolgal_android\app\src\main\AndroidManifest.xml
		INJECTED from Z:\Andhamil\Code\Android-Studio-Projects\po00000_andhamilnoolgal_android\app\src\main\AndroidManifest.xml
	xmlns:android
		ADDED from Z:\Andhamil\Code\Android-Studio-Projects\po00000_andhamilnoolgal_android\app\src\main\AndroidManifest.xml:2:11-69
uses-sdk
ADDED from Z:\Andhamil\Code\Android-Studio-Projects\po00000_andhamilnoolgal_android\app\src\main\AndroidManifest.xml:7:5-9:41
MERGED from [com.android.support:support-v4:23.1.1] Z:\Andhamil\Code\Android-Studio-Projects\po00000_andhamilnoolgal_android\app\build\intermediates\exploded-aar\com.android.support\support-v4\23.1.1\AndroidManifest.xml:20:5-43
MERGED from [com.google.android.gms:play-services:8.4.0] Z:\Andhamil\Code\Android-Studio-Projects\po00000_andhamilnoolgal_android\app\build\intermediates\exploded-aar\com.google.android.gms\play-services\8.4.0\AndroidManifest.xml:18:5-42
MERGED from [com.google.android.gms:play-services-ads:8.4.0] Z:\Andhamil\Code\Android-Studio-Projects\po00000_andhamilnoolgal_android\app\build\intermediates\exploded-aar\com.google.android.gms\play-services-ads\8.4.0\AndroidManifest.xml:23:5-42
MERGED from [com.google.android.gms:play-services-basement:8.4.0] Z:\Andhamil\Code\Android-Studio-Projects\po00000_andhamilnoolgal_android\app\build\intermediates\exploded-aar\com.google.android.gms\play-services-basement\8.4.0\AndroidManifest.xml:18:5-42
MERGED from [com.android.support:support-v4:23.1.1] Z:\Andhamil\Code\Android-Studio-Projects\po00000_andhamilnoolgal_android\app\build\intermediates\exploded-aar\com.android.support\support-v4\23.1.1\AndroidManifest.xml:20:5-43
MERGED from [com.google.android.gms:play-services-analytics:8.4.0] Z:\Andhamil\Code\Android-Studio-Projects\po00000_andhamilnoolgal_android\app\build\intermediates\exploded-aar\com.google.android.gms\play-services-analytics\8.4.0\AndroidManifest.xml:18:5-42
MERGED from [com.google.android.gms:play-services-basement:8.4.0] Z:\Andhamil\Code\Android-Studio-Projects\po00000_andhamilnoolgal_android\app\build\intermediates\exploded-aar\com.google.android.gms\play-services-basement\8.4.0\AndroidManifest.xml:18:5-42
MERGED from [com.android.support:support-v4:23.1.1] Z:\Andhamil\Code\Android-Studio-Projects\po00000_andhamilnoolgal_android\app\build\intermediates\exploded-aar\com.android.support\support-v4\23.1.1\AndroidManifest.xml:20:5-43
MERGED from [com.google.android.gms:play-services-appindexing:8.4.0] Z:\Andhamil\Code\Android-Studio-Projects\po00000_andhamilnoolgal_android\app\build\intermediates\exploded-aar\com.google.android.gms\play-services-appindexing\8.4.0\AndroidManifest.xml:18:5-42
MERGED from [com.google.android.gms:play-services-base:8.4.0] Z:\Andhamil\Code\Android-Studio-Projects\po00000_andhamilnoolgal_android\app\build\intermediates\exploded-aar\com.google.android.gms\play-services-base\8.4.0\AndroidManifest.xml:18:5-42
MERGED from [com.google.android.gms:play-services-basement:8.4.0] Z:\Andhamil\Code\Android-Studio-Projects\po00000_andhamilnoolgal_android\app\build\intermediates\exploded-aar\com.google.android.gms\play-services-basement\8.4.0\AndroidManifest.xml:18:5-42
MERGED from [com.android.support:support-v4:23.1.1] Z:\Andhamil\Code\Android-Studio-Projects\po00000_andhamilnoolgal_android\app\build\intermediates\exploded-aar\com.android.support\support-v4\23.1.1\AndroidManifest.xml:20:5-43
MERGED from [com.google.android.gms:play-services-appinvite:8.4.0] Z:\Andhamil\Code\Android-Studio-Projects\po00000_andhamilnoolgal_android\app\build\intermediates\exploded-aar\com.google.android.gms\play-services-appinvite\8.4.0\AndroidManifest.xml:18:5-42
MERGED from [com.google.android.gms:play-services-base:8.4.0] Z:\Andhamil\Code\Android-Studio-Projects\po00000_andhamilnoolgal_android\app\build\intermediates\exploded-aar\com.google.android.gms\play-services-base\8.4.0\AndroidManifest.xml:18:5-42
MERGED from [com.google.android.gms:play-services-basement:8.4.0] Z:\Andhamil\Code\Android-Studio-Projects\po00000_andhamilnoolgal_android\app\build\intermediates\exploded-aar\com.google.android.gms\play-services-basement\8.4.0\AndroidManifest.xml:18:5-42
MERGED from [com.android.support:support-v4:23.1.1] Z:\Andhamil\Code\Android-Studio-Projects\po00000_andhamilnoolgal_android\app\build\intermediates\exploded-aar\com.android.support\support-v4\23.1.1\AndroidManifest.xml:20:5-43
MERGED from [com.google.android.gms:play-services-appstate:8.4.0] Z:\Andhamil\Code\Android-Studio-Projects\po00000_andhamilnoolgal_android\app\build\intermediates\exploded-aar\com.google.android.gms\play-services-appstate\8.4.0\AndroidManifest.xml:18:5-42
MERGED from [com.google.android.gms:play-services-base:8.4.0] Z:\Andhamil\Code\Android-Studio-Projects\po00000_andhamilnoolgal_android\app\build\intermediates\exploded-aar\com.google.android.gms\play-services-base\8.4.0\AndroidManifest.xml:18:5-42
MERGED from [com.google.android.gms:play-services-basement:8.4.0] Z:\Andhamil\Code\Android-Studio-Projects\po00000_andhamilnoolgal_android\app\build\intermediates\exploded-aar\com.google.android.gms\play-services-basement\8.4.0\AndroidManifest.xml:18:5-42
MERGED from [com.android.support:support-v4:23.1.1] Z:\Andhamil\Code\Android-Studio-Projects\po00000_andhamilnoolgal_android\app\build\intermediates\exploded-aar\com.android.support\support-v4\23.1.1\AndroidManifest.xml:20:5-43
MERGED from [com.google.android.gms:play-services-auth:8.4.0] Z:\Andhamil\Code\Android-Studio-Projects\po00000_andhamilnoolgal_android\app\build\intermediates\exploded-aar\com.google.android.gms\play-services-auth\8.4.0\AndroidManifest.xml:18:5-43
MERGED from [com.google.android.gms:play-services-base:8.4.0] Z:\Andhamil\Code\Android-Studio-Projects\po00000_andhamilnoolgal_android\app\build\intermediates\exploded-aar\com.google.android.gms\play-services-base\8.4.0\AndroidManifest.xml:18:5-42
MERGED from [com.google.android.gms:play-services-basement:8.4.0] Z:\Andhamil\Code\Android-Studio-Projects\po00000_andhamilnoolgal_android\app\build\intermediates\exploded-aar\com.google.android.gms\play-services-basement\8.4.0\AndroidManifest.xml:18:5-42
MERGED from [com.android.support:support-v4:23.1.1] Z:\Andhamil\Code\Android-Studio-Projects\po00000_andhamilnoolgal_android\app\build\intermediates\exploded-aar\com.android.support\support-v4\23.1.1\AndroidManifest.xml:20:5-43
MERGED from [com.google.android.gms:play-services-base:8.4.0] Z:\Andhamil\Code\Android-Studio-Projects\po00000_andhamilnoolgal_android\app\build\intermediates\exploded-aar\com.google.android.gms\play-services-base\8.4.0\AndroidManifest.xml:18:5-42
MERGED from [com.google.android.gms:play-services-basement:8.4.0] Z:\Andhamil\Code\Android-Studio-Projects\po00000_andhamilnoolgal_android\app\build\intermediates\exploded-aar\com.google.android.gms\play-services-basement\8.4.0\AndroidManifest.xml:18:5-42
MERGED from [com.android.support:support-v4:23.1.1] Z:\Andhamil\Code\Android-Studio-Projects\po00000_andhamilnoolgal_android\app\build\intermediates\exploded-aar\com.android.support\support-v4\23.1.1\AndroidManifest.xml:20:5-43
MERGED from [com.google.android.gms:play-services-basement:8.4.0] Z:\Andhamil\Code\Android-Studio-Projects\po00000_andhamilnoolgal_android\app\build\intermediates\exploded-aar\com.google.android.gms\play-services-basement\8.4.0\AndroidManifest.xml:18:5-42
MERGED from [com.android.support:support-v4:23.1.1] Z:\Andhamil\Code\Android-Studio-Projects\po00000_andhamilnoolgal_android\app\build\intermediates\exploded-aar\com.android.support\support-v4\23.1.1\AndroidManifest.xml:20:5-43
MERGED from [com.google.android.gms:play-services-cast:8.4.0] Z:\Andhamil\Code\Android-Studio-Projects\po00000_andhamilnoolgal_android\app\build\intermediates\exploded-aar\com.google.android.gms\play-services-cast\8.4.0\AndroidManifest.xml:18:5-42
MERGED from [com.google.android.gms:play-services-base:8.4.0] Z:\Andhamil\Code\Android-Studio-Projects\po00000_andhamilnoolgal_android\app\build\intermediates\exploded-aar\com.google.android.gms\play-services-base\8.4.0\AndroidManifest.xml:18:5-42
MERGED from [com.google.android.gms:play-services-basement:8.4.0] Z:\Andhamil\Code\Android-Studio-Projects\po00000_andhamilnoolgal_android\app\build\intermediates\exploded-aar\com.google.android.gms\play-services-basement\8.4.0\AndroidManifest.xml:18:5-42
MERGED from [com.android.support:support-v4:23.1.1] Z:\Andhamil\Code\Android-Studio-Projects\po00000_andhamilnoolgal_android\app\build\intermediates\exploded-aar\com.android.support\support-v4\23.1.1\AndroidManifest.xml:20:5-43
MERGED from [com.android.support:mediarouter-v7:23.0.0] Z:\Andhamil\Code\Android-Studio-Projects\po00000_andhamilnoolgal_android\app\build\intermediates\exploded-aar\com.android.support\mediarouter-v7\23.0.0\AndroidManifest.xml:20:5-43
MERGED from [com.android.support:appcompat-v7:23.0.1] Z:\Andhamil\Code\Android-Studio-Projects\po00000_andhamilnoolgal_android\app\build\intermediates\exploded-aar\com.android.support\appcompat-v7\23.0.1\AndroidManifest.xml:20:5-43
MERGED from [com.android.support:support-v4:23.1.1] Z:\Andhamil\Code\Android-Studio-Projects\po00000_andhamilnoolgal_android\app\build\intermediates\exploded-aar\com.android.support\support-v4\23.1.1\AndroidManifest.xml:20:5-43
MERGED from [com.google.android.gms:play-services-drive:8.4.0] Z:\Andhamil\Code\Android-Studio-Projects\po00000_andhamilnoolgal_android\app\build\intermediates\exploded-aar\com.google.android.gms\play-services-drive\8.4.0\AndroidManifest.xml:18:5-42
MERGED from [com.google.android.gms:play-services-base:8.4.0] Z:\Andhamil\Code\Android-Studio-Projects\po00000_andhamilnoolgal_android\app\build\intermediates\exploded-aar\com.google.android.gms\play-services-base\8.4.0\AndroidManifest.xml:18:5-42
MERGED from [com.google.android.gms:play-services-basement:8.4.0] Z:\Andhamil\Code\Android-Studio-Projects\po00000_andhamilnoolgal_android\app\build\intermediates\exploded-aar\com.google.android.gms\play-services-basement\8.4.0\AndroidManifest.xml:18:5-42
MERGED from [com.android.support:support-v4:23.1.1] Z:\Andhamil\Code\Android-Studio-Projects\po00000_andhamilnoolgal_android\app\build\intermediates\exploded-aar\com.android.support\support-v4\23.1.1\AndroidManifest.xml:20:5-43
MERGED from [com.google.android.gms:play-services-fitness:8.4.0] Z:\Andhamil\Code\Android-Studio-Projects\po00000_andhamilnoolgal_android\app\build\intermediates\exploded-aar\com.google.android.gms\play-services-fitness\8.4.0\AndroidManifest.xml:18:5-42
MERGED from [com.google.android.gms:play-services-base:8.4.0] Z:\Andhamil\Code\Android-Studio-Projects\po00000_andhamilnoolgal_android\app\build\intermediates\exploded-aar\com.google.android.gms\play-services-base\8.4.0\AndroidManifest.xml:18:5-42
MERGED from [com.google.android.gms:play-services-basement:8.4.0] Z:\Andhamil\Code\Android-Studio-Projects\po00000_andhamilnoolgal_android\app\build\intermediates\exploded-aar\com.google.android.gms\play-services-basement\8.4.0\AndroidManifest.xml:18:5-42
MERGED from [com.android.support:support-v4:23.1.1] Z:\Andhamil\Code\Android-Studio-Projects\po00000_andhamilnoolgal_android\app\build\intermediates\exploded-aar\com.android.support\support-v4\23.1.1\AndroidManifest.xml:20:5-43
MERGED from [com.google.android.gms:play-services-location:8.4.0] Z:\Andhamil\Code\Android-Studio-Projects\po00000_andhamilnoolgal_android\app\build\intermediates\exploded-aar\com.google.android.gms\play-services-location\8.4.0\AndroidManifest.xml:18:5-42
MERGED from [com.google.android.gms:play-services-base:8.4.0] Z:\Andhamil\Code\Android-Studio-Projects\po00000_andhamilnoolgal_android\app\build\intermediates\exploded-aar\com.google.android.gms\play-services-base\8.4.0\AndroidManifest.xml:18:5-42
MERGED from [com.google.android.gms:play-services-basement:8.4.0] Z:\Andhamil\Code\Android-Studio-Projects\po00000_andhamilnoolgal_android\app\build\intermediates\exploded-aar\com.google.android.gms\play-services-basement\8.4.0\AndroidManifest.xml:18:5-42
MERGED from [com.android.support:support-v4:23.1.1] Z:\Andhamil\Code\Android-Studio-Projects\po00000_andhamilnoolgal_android\app\build\intermediates\exploded-aar\com.android.support\support-v4\23.1.1\AndroidManifest.xml:20:5-43
MERGED from [com.google.android.gms:play-services-maps:8.4.0] Z:\Andhamil\Code\Android-Studio-Projects\po00000_andhamilnoolgal_android\app\build\intermediates\exploded-aar\com.google.android.gms\play-services-maps\8.4.0\AndroidManifest.xml:26:5-42
MERGED from [com.google.android.gms:play-services-base:8.4.0] Z:\Andhamil\Code\Android-Studio-Projects\po00000_andhamilnoolgal_android\app\build\intermediates\exploded-aar\com.google.android.gms\play-services-base\8.4.0\AndroidManifest.xml:18:5-42
MERGED from [com.google.android.gms:play-services-basement:8.4.0] Z:\Andhamil\Code\Android-Studio-Projects\po00000_andhamilnoolgal_android\app\build\intermediates\exploded-aar\com.google.android.gms\play-services-basement\8.4.0\AndroidManifest.xml:18:5-42
MERGED from [com.android.support:support-v4:23.1.1] Z:\Andhamil\Code\Android-Studio-Projects\po00000_andhamilnoolgal_android\app\build\intermediates\exploded-aar\com.android.support\support-v4\23.1.1\AndroidManifest.xml:20:5-43
MERGED from [com.google.android.gms:play-services-games:8.4.0] Z:\Andhamil\Code\Android-Studio-Projects\po00000_andhamilnoolgal_android\app\build\intermediates\exploded-aar\com.google.android.gms\play-services-games\8.4.0\AndroidManifest.xml:18:5-42
MERGED from [com.google.android.gms:play-services-base:8.4.0] Z:\Andhamil\Code\Android-Studio-Projects\po00000_andhamilnoolgal_android\app\build\intermediates\exploded-aar\com.google.android.gms\play-services-base\8.4.0\AndroidManifest.xml:18:5-42
MERGED from [com.google.android.gms:play-services-basement:8.4.0] Z:\Andhamil\Code\Android-Studio-Projects\po00000_andhamilnoolgal_android\app\build\intermediates\exploded-aar\com.google.android.gms\play-services-basement\8.4.0\AndroidManifest.xml:18:5-42
MERGED from [com.android.support:support-v4:23.1.1] Z:\Andhamil\Code\Android-Studio-Projects\po00000_andhamilnoolgal_android\app\build\intermediates\exploded-aar\com.android.support\support-v4\23.1.1\AndroidManifest.xml:20:5-43
MERGED from [com.google.android.gms:play-services-drive:8.4.0] Z:\Andhamil\Code\Android-Studio-Projects\po00000_andhamilnoolgal_android\app\build\intermediates\exploded-aar\com.google.android.gms\play-services-drive\8.4.0\AndroidManifest.xml:18:5-42
MERGED from [com.google.android.gms:play-services-base:8.4.0] Z:\Andhamil\Code\Android-Studio-Projects\po00000_andhamilnoolgal_android\app\build\intermediates\exploded-aar\com.google.android.gms\play-services-base\8.4.0\AndroidManifest.xml:18:5-42
MERGED from [com.google.android.gms:play-services-basement:8.4.0] Z:\Andhamil\Code\Android-Studio-Projects\po00000_andhamilnoolgal_android\app\build\intermediates\exploded-aar\com.google.android.gms\play-services-basement\8.4.0\AndroidManifest.xml:18:5-42
MERGED from [com.android.support:support-v4:23.1.1] Z:\Andhamil\Code\Android-Studio-Projects\po00000_andhamilnoolgal_android\app\build\intermediates\exploded-aar\com.android.support\support-v4\23.1.1\AndroidManifest.xml:20:5-43
MERGED from [com.google.android.gms:play-services-gcm:8.4.0] Z:\Andhamil\Code\Android-Studio-Projects\po00000_andhamilnoolgal_android\app\build\intermediates\exploded-aar\com.google.android.gms\play-services-gcm\8.4.0\AndroidManifest.xml:18:5-42
MERGED from [com.google.android.gms:play-services-base:8.4.0] Z:\Andhamil\Code\Android-Studio-Projects\po00000_andhamilnoolgal_android\app\build\intermediates\exploded-aar\com.google.android.gms\play-services-base\8.4.0\AndroidManifest.xml:18:5-42
MERGED from [com.google.android.gms:play-services-basement:8.4.0] Z:\Andhamil\Code\Android-Studio-Projects\po00000_andhamilnoolgal_android\app\build\intermediates\exploded-aar\com.google.android.gms\play-services-basement\8.4.0\AndroidManifest.xml:18:5-42
MERGED from [com.android.support:support-v4:23.1.1] Z:\Andhamil\Code\Android-Studio-Projects\po00000_andhamilnoolgal_android\app\build\intermediates\exploded-aar\com.android.support\support-v4\23.1.1\AndroidManifest.xml:20:5-43
MERGED from [com.google.android.gms:play-services-measurement:8.4.0] Z:\Andhamil\Code\Android-Studio-Projects\po00000_andhamilnoolgal_android\app\build\intermediates\exploded-aar\com.google.android.gms\play-services-measurement\8.4.0\AndroidManifest.xml:18:5-42
MERGED from [com.google.android.gms:play-services-basement:8.4.0] Z:\Andhamil\Code\Android-Studio-Projects\po00000_andhamilnoolgal_android\app\build\intermediates\exploded-aar\com.google.android.gms\play-services-basement\8.4.0\AndroidManifest.xml:18:5-42
MERGED from [com.android.support:support-v4:23.1.1] Z:\Andhamil\Code\Android-Studio-Projects\po00000_andhamilnoolgal_android\app\build\intermediates\exploded-aar\com.android.support\support-v4\23.1.1\AndroidManifest.xml:20:5-43
MERGED from [com.google.android.gms:play-services-identity:8.4.0] Z:\Andhamil\Code\Android-Studio-Projects\po00000_andhamilnoolgal_android\app\build\intermediates\exploded-aar\com.google.android.gms\play-services-identity\8.4.0\AndroidManifest.xml:18:5-42
MERGED from [com.google.android.gms:play-services-base:8.4.0] Z:\Andhamil\Code\Android-Studio-Projects\po00000_andhamilnoolgal_android\app\build\intermediates\exploded-aar\com.google.android.gms\play-services-base\8.4.0\AndroidManifest.xml:18:5-42
MERGED from [com.google.android.gms:play-services-basement:8.4.0] Z:\Andhamil\Code\Android-Studio-Projects\po00000_andhamilnoolgal_android\app\build\intermediates\exploded-aar\com.google.android.gms\play-services-basement\8.4.0\AndroidManifest.xml:18:5-42
MERGED from [com.android.support:support-v4:23.1.1] Z:\Andhamil\Code\Android-Studio-Projects\po00000_andhamilnoolgal_android\app\build\intermediates\exploded-aar\com.android.support\support-v4\23.1.1\AndroidManifest.xml:20:5-43
MERGED from [com.google.android.gms:play-services-location:8.4.0] Z:\Andhamil\Code\Android-Studio-Projects\po00000_andhamilnoolgal_android\app\build\intermediates\exploded-aar\com.google.android.gms\play-services-location\8.4.0\AndroidManifest.xml:18:5-42
MERGED from [com.google.android.gms:play-services-base:8.4.0] Z:\Andhamil\Code\Android-Studio-Projects\po00000_andhamilnoolgal_android\app\build\intermediates\exploded-aar\com.google.android.gms\play-services-base\8.4.0\AndroidManifest.xml:18:5-42
MERGED from [com.google.android.gms:play-services-basement:8.4.0] Z:\Andhamil\Code\Android-Studio-Projects\po00000_andhamilnoolgal_android\app\build\intermediates\exploded-aar\com.google.android.gms\play-services-basement\8.4.0\AndroidManifest.xml:18:5-42
MERGED from [com.android.support:support-v4:23.1.1] Z:\Andhamil\Code\Android-Studio-Projects\po00000_andhamilnoolgal_android\app\build\intermediates\exploded-aar\com.android.support\support-v4\23.1.1\AndroidManifest.xml:20:5-43
MERGED from [com.google.android.gms:play-services-maps:8.4.0] Z:\Andhamil\Code\Android-Studio-Projects\po00000_andhamilnoolgal_android\app\build\intermediates\exploded-aar\com.google.android.gms\play-services-maps\8.4.0\AndroidManifest.xml:26:5-42
MERGED from [com.google.android.gms:play-services-base:8.4.0] Z:\Andhamil\Code\Android-Studio-Projects\po00000_andhamilnoolgal_android\app\build\intermediates\exploded-aar\com.google.android.gms\play-services-base\8.4.0\AndroidManifest.xml:18:5-42
MERGED from [com.google.android.gms:play-services-basement:8.4.0] Z:\Andhamil\Code\Android-Studio-Projects\po00000_andhamilnoolgal_android\app\build\intermediates\exploded-aar\com.google.android.gms\play-services-basement\8.4.0\AndroidManifest.xml:18:5-42
MERGED from [com.android.support:support-v4:23.1.1] Z:\Andhamil\Code\Android-Studio-Projects\po00000_andhamilnoolgal_android\app\build\intermediates\exploded-aar\com.android.support\support-v4\23.1.1\AndroidManifest.xml:20:5-43
MERGED from [com.google.android.gms:play-services-maps:8.4.0] Z:\Andhamil\Code\Android-Studio-Projects\po00000_andhamilnoolgal_android\app\build\intermediates\exploded-aar\com.google.android.gms\play-services-maps\8.4.0\AndroidManifest.xml:26:5-42
MERGED from [com.google.android.gms:play-services-base:8.4.0] Z:\Andhamil\Code\Android-Studio-Projects\po00000_andhamilnoolgal_android\app\build\intermediates\exploded-aar\com.google.android.gms\play-services-base\8.4.0\AndroidManifest.xml:18:5-42
MERGED from [com.google.android.gms:play-services-basement:8.4.0] Z:\Andhamil\Code\Android-Studio-Projects\po00000_andhamilnoolgal_android\app\build\intermediates\exploded-aar\com.google.android.gms\play-services-basement\8.4.0\AndroidManifest.xml:18:5-42
MERGED from [com.android.support:support-v4:23.1.1] Z:\Andhamil\Code\Android-Studio-Projects\po00000_andhamilnoolgal_android\app\build\intermediates\exploded-aar\com.android.support\support-v4\23.1.1\AndroidManifest.xml:20:5-43
MERGED from [com.google.android.gms:play-services-measurement:8.4.0] Z:\Andhamil\Code\Android-Studio-Projects\po00000_andhamilnoolgal_android\app\build\intermediates\exploded-aar\com.google.android.gms\play-services-measurement\8.4.0\AndroidManifest.xml:18:5-42
MERGED from [com.google.android.gms:play-services-basement:8.4.0] Z:\Andhamil\Code\Android-Studio-Projects\po00000_andhamilnoolgal_android\app\build\intermediates\exploded-aar\com.google.android.gms\play-services-basement\8.4.0\AndroidManifest.xml:18:5-42
MERGED from [com.android.support:support-v4:23.1.1] Z:\Andhamil\Code\Android-Studio-Projects\po00000_andhamilnoolgal_android\app\build\intermediates\exploded-aar\com.android.support\support-v4\23.1.1\AndroidManifest.xml:20:5-43
MERGED from [com.google.android.gms:play-services-nearby:8.4.0] Z:\Andhamil\Code\Android-Studio-Projects\po00000_andhamilnoolgal_android\app\build\intermediates\exploded-aar\com.google.android.gms\play-services-nearby\8.4.0\AndroidManifest.xml:18:5-42
MERGED from [com.google.android.gms:play-services-base:8.4.0] Z:\Andhamil\Code\Android-Studio-Projects\po00000_andhamilnoolgal_android\app\build\intermediates\exploded-aar\com.google.android.gms\play-services-base\8.4.0\AndroidManifest.xml:18:5-42
MERGED from [com.google.android.gms:play-services-basement:8.4.0] Z:\Andhamil\Code\Android-Studio-Projects\po00000_andhamilnoolgal_android\app\build\intermediates\exploded-aar\com.google.android.gms\play-services-basement\8.4.0\AndroidManifest.xml:18:5-42
MERGED from [com.android.support:support-v4:23.1.1] Z:\Andhamil\Code\Android-Studio-Projects\po00000_andhamilnoolgal_android\app\build\intermediates\exploded-aar\com.android.support\support-v4\23.1.1\AndroidManifest.xml:20:5-43
MERGED from [com.google.android.gms:play-services-panorama:8.4.0] Z:\Andhamil\Code\Android-Studio-Projects\po00000_andhamilnoolgal_android\app\build\intermediates\exploded-aar\com.google.android.gms\play-services-panorama\8.4.0\AndroidManifest.xml:18:5-42
MERGED from [com.google.android.gms:play-services-base:8.4.0] Z:\Andhamil\Code\Android-Studio-Projects\po00000_andhamilnoolgal_android\app\build\intermediates\exploded-aar\com.google.android.gms\play-services-base\8.4.0\AndroidManifest.xml:18:5-42
MERGED from [com.google.android.gms:play-services-basement:8.4.0] Z:\Andhamil\Code\Android-Studio-Projects\po00000_andhamilnoolgal_android\app\build\intermediates\exploded-aar\com.google.android.gms\play-services-basement\8.4.0\AndroidManifest.xml:18:5-42
MERGED from [com.android.support:support-v4:23.1.1] Z:\Andhamil\Code\Android-Studio-Projects\po00000_andhamilnoolgal_android\app\build\intermediates\exploded-aar\com.android.support\support-v4\23.1.1\AndroidManifest.xml:20:5-43
MERGED from [com.google.android.gms:play-services-plus:8.4.0] Z:\Andhamil\Code\Android-Studio-Projects\po00000_andhamilnoolgal_android\app\build\intermediates\exploded-aar\com.google.android.gms\play-services-plus\8.4.0\AndroidManifest.xml:18:5-42
MERGED from [com.google.android.gms:play-services-base:8.4.0] Z:\Andhamil\Code\Android-Studio-Projects\po00000_andhamilnoolgal_android\app\build\intermediates\exploded-aar\com.google.android.gms\play-services-base\8.4.0\AndroidManifest.xml:18:5-42
MERGED from [com.google.android.gms:play-services-basement:8.4.0] Z:\Andhamil\Code\Android-Studio-Projects\po00000_andhamilnoolgal_android\app\build\intermediates\exploded-aar\com.google.android.gms\play-services-basement\8.4.0\AndroidManifest.xml:18:5-42
MERGED from [com.android.support:support-v4:23.1.1] Z:\Andhamil\Code\Android-Studio-Projects\po00000_andhamilnoolgal_android\app\build\intermediates\exploded-aar\com.android.support\support-v4\23.1.1\AndroidManifest.xml:20:5-43
MERGED from [com.google.android.gms:play-services-safetynet:8.4.0] Z:\Andhamil\Code\Android-Studio-Projects\po00000_andhamilnoolgal_android\app\build\intermediates\exploded-aar\com.google.android.gms\play-services-safetynet\8.4.0\AndroidManifest.xml:18:5-42
MERGED from [com.google.android.gms:play-services-base:8.4.0] Z:\Andhamil\Code\Android-Studio-Projects\po00000_andhamilnoolgal_android\app\build\intermediates\exploded-aar\com.google.android.gms\play-services-base\8.4.0\AndroidManifest.xml:18:5-42
MERGED from [com.google.android.gms:play-services-basement:8.4.0] Z:\Andhamil\Code\Android-Studio-Projects\po00000_andhamilnoolgal_android\app\build\intermediates\exploded-aar\com.google.android.gms\play-services-basement\8.4.0\AndroidManifest.xml:18:5-42
MERGED from [com.android.support:support-v4:23.1.1] Z:\Andhamil\Code\Android-Studio-Projects\po00000_andhamilnoolgal_android\app\build\intermediates\exploded-aar\com.android.support\support-v4\23.1.1\AndroidManifest.xml:20:5-43
MERGED from [com.google.android.gms:play-services-vision:8.4.0] Z:\Andhamil\Code\Android-Studio-Projects\po00000_andhamilnoolgal_android\app\build\intermediates\exploded-aar\com.google.android.gms\play-services-vision\8.4.0\AndroidManifest.xml:4:5-42
MERGED from [com.google.android.gms:play-services-base:8.4.0] Z:\Andhamil\Code\Android-Studio-Projects\po00000_andhamilnoolgal_android\app\build\intermediates\exploded-aar\com.google.android.gms\play-services-base\8.4.0\AndroidManifest.xml:18:5-42
MERGED from [com.google.android.gms:play-services-basement:8.4.0] Z:\Andhamil\Code\Android-Studio-Projects\po00000_andhamilnoolgal_android\app\build\intermediates\exploded-aar\com.google.android.gms\play-services-basement\8.4.0\AndroidManifest.xml:18:5-42
MERGED from [com.android.support:support-v4:23.1.1] Z:\Andhamil\Code\Android-Studio-Projects\po00000_andhamilnoolgal_android\app\build\intermediates\exploded-aar\com.android.support\support-v4\23.1.1\AndroidManifest.xml:20:5-43
MERGED from [com.google.android.gms:play-services-wallet:8.4.0] Z:\Andhamil\Code\Android-Studio-Projects\po00000_andhamilnoolgal_android\app\build\intermediates\exploded-aar\com.google.android.gms\play-services-wallet\8.4.0\AndroidManifest.xml:19:5-42
MERGED from [com.google.android.gms:play-services-base:8.4.0] Z:\Andhamil\Code\Android-Studio-Projects\po00000_andhamilnoolgal_android\app\build\intermediates\exploded-aar\com.google.android.gms\play-services-base\8.4.0\AndroidManifest.xml:18:5-42
MERGED from [com.google.android.gms:play-services-basement:8.4.0] Z:\Andhamil\Code\Android-Studio-Projects\po00000_andhamilnoolgal_android\app\build\intermediates\exploded-aar\com.google.android.gms\play-services-basement\8.4.0\AndroidManifest.xml:18:5-42
MERGED from [com.android.support:support-v4:23.1.1] Z:\Andhamil\Code\Android-Studio-Projects\po00000_andhamilnoolgal_android\app\build\intermediates\exploded-aar\com.android.support\support-v4\23.1.1\AndroidManifest.xml:20:5-43
MERGED from [com.google.android.gms:play-services-identity:8.4.0] Z:\Andhamil\Code\Android-Studio-Projects\po00000_andhamilnoolgal_android\app\build\intermediates\exploded-aar\com.google.android.gms\play-services-identity\8.4.0\AndroidManifest.xml:18:5-42
MERGED from [com.google.android.gms:play-services-base:8.4.0] Z:\Andhamil\Code\Android-Studio-Projects\po00000_andhamilnoolgal_android\app\build\intermediates\exploded-aar\com.google.android.gms\play-services-base\8.4.0\AndroidManifest.xml:18:5-42
MERGED from [com.google.android.gms:play-services-basement:8.4.0] Z:\Andhamil\Code\Android-Studio-Projects\po00000_andhamilnoolgal_android\app\build\intermediates\exploded-aar\com.google.android.gms\play-services-basement\8.4.0\AndroidManifest.xml:18:5-42
MERGED from [com.android.support:support-v4:23.1.1] Z:\Andhamil\Code\Android-Studio-Projects\po00000_andhamilnoolgal_android\app\build\intermediates\exploded-aar\com.android.support\support-v4\23.1.1\AndroidManifest.xml:20:5-43
MERGED from [com.google.android.gms:play-services-maps:8.4.0] Z:\Andhamil\Code\Android-Studio-Projects\po00000_andhamilnoolgal_android\app\build\intermediates\exploded-aar\com.google.android.gms\play-services-maps\8.4.0\AndroidManifest.xml:26:5-42
MERGED from [com.google.android.gms:play-services-base:8.4.0] Z:\Andhamil\Code\Android-Studio-Projects\po00000_andhamilnoolgal_android\app\build\intermediates\exploded-aar\com.google.android.gms\play-services-base\8.4.0\AndroidManifest.xml:18:5-42
MERGED from [com.google.android.gms:play-services-basement:8.4.0] Z:\Andhamil\Code\Android-Studio-Projects\po00000_andhamilnoolgal_android\app\build\intermediates\exploded-aar\com.google.android.gms\play-services-basement\8.4.0\AndroidManifest.xml:18:5-42
MERGED from [com.android.support:support-v4:23.1.1] Z:\Andhamil\Code\Android-Studio-Projects\po00000_andhamilnoolgal_android\app\build\intermediates\exploded-aar\com.android.support\support-v4\23.1.1\AndroidManifest.xml:20:5-43
MERGED from [com.google.android.gms:play-services-wearable:8.4.0] Z:\Andhamil\Code\Android-Studio-Projects\po00000_andhamilnoolgal_android\app\build\intermediates\exploded-aar\com.google.android.gms\play-services-wearable\8.4.0\AndroidManifest.xml:18:5-42
MERGED from [com.google.android.gms:play-services-base:8.4.0] Z:\Andhamil\Code\Android-Studio-Projects\po00000_andhamilnoolgal_android\app\build\intermediates\exploded-aar\com.google.android.gms\play-services-base\8.4.0\AndroidManifest.xml:18:5-42
MERGED from [com.google.android.gms:play-services-basement:8.4.0] Z:\Andhamil\Code\Android-Studio-Projects\po00000_andhamilnoolgal_android\app\build\intermediates\exploded-aar\com.google.android.gms\play-services-basement\8.4.0\AndroidManifest.xml:18:5-42
MERGED from [com.android.support:support-v4:23.1.1] Z:\Andhamil\Code\Android-Studio-Projects\po00000_andhamilnoolgal_android\app\build\intermediates\exploded-aar\com.android.support\support-v4\23.1.1\AndroidManifest.xml:20:5-43
MERGED from [com.android.support:appcompat-v7:23.0.1] Z:\Andhamil\Code\Android-Studio-Projects\po00000_andhamilnoolgal_android\app\build\intermediates\exploded-aar\com.android.support\appcompat-v7\23.0.1\AndroidManifest.xml:20:5-43
MERGED from [com.android.support:support-v4:23.1.1] Z:\Andhamil\Code\Android-Studio-Projects\po00000_andhamilnoolgal_android\app\build\intermediates\exploded-aar\com.android.support\support-v4\23.1.1\AndroidManifest.xml:20:5-43
	android:targetSdkVersion
		ADDED from Z:\Andhamil\Code\Android-Studio-Projects\po00000_andhamilnoolgal_android\app\src\main\AndroidManifest.xml:9:9-38
		INJECTED from Z:\Andhamil\Code\Android-Studio-Projects\po00000_andhamilnoolgal_android\app\src\main\AndroidManifest.xml
		INJECTED from Z:\Andhamil\Code\Android-Studio-Projects\po00000_andhamilnoolgal_android\app\src\main\AndroidManifest.xml
	android:minSdkVersion
		ADDED from Z:\Andhamil\Code\Android-Studio-Projects\po00000_andhamilnoolgal_android\app\src\main\AndroidManifest.xml:8:9-35
		INJECTED from Z:\Andhamil\Code\Android-Studio-Projects\po00000_andhamilnoolgal_android\app\src\main\AndroidManifest.xml
		INJECTED from Z:\Andhamil\Code\Android-Studio-Projects\po00000_andhamilnoolgal_android\app\src\main\AndroidManifest.xml
uses-permission#android.permission.GET_ACCOUNTS
ADDED from Z:\Andhamil\Code\Android-Studio-Projects\po00000_andhamilnoolgal_android\app\src\main\AndroidManifest.xml:11:5-71
	android:name
		ADDED from Z:\Andhamil\Code\Android-Studio-Projects\po00000_andhamilnoolgal_android\app\src\main\AndroidManifest.xml:11:22-68
uses-permission#com.android.vending.BILLING
ADDED from Z:\Andhamil\Code\Android-Studio-Projects\po00000_andhamilnoolgal_android\app\src\main\AndroidManifest.xml:12:5-67
	android:name
		ADDED from Z:\Andhamil\Code\Android-Studio-Projects\po00000_andhamilnoolgal_android\app\src\main\AndroidManifest.xml:12:22-64
uses-permission#android.permission.INTERNET
ADDED from Z:\Andhamil\Code\Android-Studio-Projects\po00000_andhamilnoolgal_android\app\src\main\AndroidManifest.xml:13:5-67
MERGED from [com.google.android.gms:play-services-ads:8.4.0] Z:\Andhamil\Code\Android-Studio-Projects\po00000_andhamilnoolgal_android\app\build\intermediates\exploded-aar\com.google.android.gms\play-services-ads\8.4.0\AndroidManifest.xml:20:5-66
MERGED from [com.google.android.gms:play-services-analytics:8.4.0] Z:\Andhamil\Code\Android-Studio-Projects\po00000_andhamilnoolgal_android\app\build\intermediates\exploded-aar\com.google.android.gms\play-services-analytics\8.4.0\AndroidManifest.xml:21:5-67
MERGED from [com.google.android.gms:play-services-appinvite:8.4.0] Z:\Andhamil\Code\Android-Studio-Projects\po00000_andhamilnoolgal_android\app\build\intermediates\exploded-aar\com.google.android.gms\play-services-appinvite\8.4.0\AndroidManifest.xml:19:5-67
MERGED from [com.google.android.gms:play-services-maps:8.4.0] Z:\Andhamil\Code\Android-Studio-Projects\po00000_andhamilnoolgal_android\app\build\intermediates\exploded-aar\com.google.android.gms\play-services-maps\8.4.0\AndroidManifest.xml:21:5-66
MERGED from [com.google.android.gms:play-services-gcm:8.4.0] Z:\Andhamil\Code\Android-Studio-Projects\po00000_andhamilnoolgal_android\app\build\intermediates\exploded-aar\com.google.android.gms\play-services-gcm\8.4.0\AndroidManifest.xml:22:5-67
MERGED from [com.google.android.gms:play-services-measurement:8.4.0] Z:\Andhamil\Code\Android-Studio-Projects\po00000_andhamilnoolgal_android\app\build\intermediates\exploded-aar\com.google.android.gms\play-services-measurement\8.4.0\AndroidManifest.xml:21:5-67
MERGED from [com.google.android.gms:play-services-maps:8.4.0] Z:\Andhamil\Code\Android-Studio-Projects\po00000_andhamilnoolgal_android\app\build\intermediates\exploded-aar\com.google.android.gms\play-services-maps\8.4.0\AndroidManifest.xml:21:5-66
MERGED from [com.google.android.gms:play-services-maps:8.4.0] Z:\Andhamil\Code\Android-Studio-Projects\po00000_andhamilnoolgal_android\app\build\intermediates\exploded-aar\com.google.android.gms\play-services-maps\8.4.0\AndroidManifest.xml:21:5-66
MERGED from [com.google.android.gms:play-services-measurement:8.4.0] Z:\Andhamil\Code\Android-Studio-Projects\po00000_andhamilnoolgal_android\app\build\intermediates\exploded-aar\com.google.android.gms\play-services-measurement\8.4.0\AndroidManifest.xml:21:5-67
MERGED from [com.google.android.gms:play-services-maps:8.4.0] Z:\Andhamil\Code\Android-Studio-Projects\po00000_andhamilnoolgal_android\app\build\intermediates\exploded-aar\com.google.android.gms\play-services-maps\8.4.0\AndroidManifest.xml:21:5-66
	android:name
		ADDED from Z:\Andhamil\Code\Android-Studio-Projects\po00000_andhamilnoolgal_android\app\src\main\AndroidManifest.xml:13:22-64
uses-permission#android.permission.WAKE_LOCK
ADDED from Z:\Andhamil\Code\Android-Studio-Projects\po00000_andhamilnoolgal_android\app\src\main\AndroidManifest.xml:14:5-68
MERGED from [com.google.android.gms:play-services-measurement:8.4.0] Z:\Andhamil\Code\Android-Studio-Projects\po00000_andhamilnoolgal_android\app\build\intermediates\exploded-aar\com.google.android.gms\play-services-measurement\8.4.0\AndroidManifest.xml:24:5-67
MERGED from [com.google.android.gms:play-services-measurement:8.4.0] Z:\Andhamil\Code\Android-Studio-Projects\po00000_andhamilnoolgal_android\app\build\intermediates\exploded-aar\com.google.android.gms\play-services-measurement\8.4.0\AndroidManifest.xml:24:5-67
	android:name
		ADDED from Z:\Andhamil\Code\Android-Studio-Projects\po00000_andhamilnoolgal_android\app\src\main\AndroidManifest.xml:14:22-65
uses-permission#com.google.android.c2dm.permission.RECEIVE
ADDED from Z:\Andhamil\Code\Android-Studio-Projects\po00000_andhamilnoolgal_android\app\src\main\AndroidManifest.xml:15:5-82
MERGED from [com.google.android.gms:play-services-gcm:8.4.0] Z:\Andhamil\Code\Android-Studio-Projects\po00000_andhamilnoolgal_android\app\build\intermediates\exploded-aar\com.google.android.gms\play-services-gcm\8.4.0\AndroidManifest.xml:21:5-82
	android:name
		ADDED from Z:\Andhamil\Code\Android-Studio-Projects\po00000_andhamilnoolgal_android\app\src\main\AndroidManifest.xml:15:22-79
permission#andhamil.droid.andhamilnoolgal.permission.C2D_MESSAGE
ADDED from Z:\Andhamil\Code\Android-Studio-Projects\po00000_andhamilnoolgal_android\app\src\main\AndroidManifest.xml:17:5-19:47
	android:protectionLevel
		ADDED from Z:\Andhamil\Code\Android-Studio-Projects\po00000_andhamilnoolgal_android\app\src\main\AndroidManifest.xml:19:9-44
	android:name
		ADDED from Z:\Andhamil\Code\Android-Studio-Projects\po00000_andhamilnoolgal_android\app\src\main\AndroidManifest.xml:18:9-77
uses-permission#andhamil.droid.andhamilnoolgal.permission.C2D_MESSAGE
ADDED from Z:\Andhamil\Code\Android-Studio-Projects\po00000_andhamilnoolgal_android\app\src\main\AndroidManifest.xml:21:5-93
	android:name
		ADDED from Z:\Andhamil\Code\Android-Studio-Projects\po00000_andhamilnoolgal_android\app\src\main\AndroidManifest.xml:21:22-90
application
ADDED from Z:\Andhamil\Code\Android-Studio-Projects\po00000_andhamilnoolgal_android\app\src\main\AndroidManifest.xml:23:5-62:19
MERGED from [com.android.support:support-v4:23.1.1] Z:\Andhamil\Code\Android-Studio-Projects\po00000_andhamilnoolgal_android\app\build\intermediates\exploded-aar\com.android.support\support-v4\23.1.1\AndroidManifest.xml:22:5-20
MERGED from [com.google.android.gms:play-services:8.4.0] Z:\Andhamil\Code\Android-Studio-Projects\po00000_andhamilnoolgal_android\app\build\intermediates\exploded-aar\com.google.android.gms\play-services\8.4.0\AndroidManifest.xml:19:5-20
MERGED from [com.google.android.gms:play-services-ads:8.4.0] Z:\Andhamil\Code\Android-Studio-Projects\po00000_andhamilnoolgal_android\app\build\intermediates\exploded-aar\com.google.android.gms\play-services-ads\8.4.0\AndroidManifest.xml:24:5-32:19
MERGED from [com.google.android.gms:play-services-basement:8.4.0] Z:\Andhamil\Code\Android-Studio-Projects\po00000_andhamilnoolgal_android\app\build\intermediates\exploded-aar\com.google.android.gms\play-services-basement\8.4.0\AndroidManifest.xml:20:5-24:19
MERGED from [com.android.support:support-v4:23.1.1] Z:\Andhamil\Code\Android-Studio-Projects\po00000_andhamilnoolgal_android\app\build\intermediates\exploded-aar\com.android.support\support-v4\23.1.1\AndroidManifest.xml:22:5-20
MERGED from [com.google.android.gms:play-services-analytics:8.4.0] Z:\Andhamil\Code\Android-Studio-Projects\po00000_andhamilnoolgal_android\app\build\intermediates\exploded-aar\com.google.android.gms\play-services-analytics\8.4.0\AndroidManifest.xml:24:5-20
MERGED from [com.google.android.gms:play-services-basement:8.4.0] Z:\Andhamil\Code\Android-Studio-Projects\po00000_andhamilnoolgal_android\app\build\intermediates\exploded-aar\com.google.android.gms\play-services-basement\8.4.0\AndroidManifest.xml:20:5-24:19
MERGED from [com.android.support:support-v4:23.1.1] Z:\Andhamil\Code\Android-Studio-Projects\po00000_andhamilnoolgal_android\app\build\intermediates\exploded-aar\com.android.support\support-v4\23.1.1\AndroidManifest.xml:22:5-20
MERGED from [com.google.android.gms:play-services-appindexing:8.4.0] Z:\Andhamil\Code\Android-Studio-Projects\po00000_andhamilnoolgal_android\app\build\intermediates\exploded-aar\com.google.android.gms\play-services-appindexing\8.4.0\AndroidManifest.xml:19:5-20
MERGED from [com.google.android.gms:play-services-basement:8.4.0] Z:\Andhamil\Code\Android-Studio-Projects\po00000_andhamilnoolgal_android\app\build\intermediates\exploded-aar\com.google.android.gms\play-services-basement\8.4.0\AndroidManifest.xml:20:5-24:19
MERGED from [com.android.support:support-v4:23.1.1] Z:\Andhamil\Code\Android-Studio-Projects\po00000_andhamilnoolgal_android\app\build\intermediates\exploded-aar\com.android.support\support-v4\23.1.1\AndroidManifest.xml:22:5-20
MERGED from [com.google.android.gms:play-services-appinvite:8.4.0] Z:\Andhamil\Code\Android-Studio-Projects\po00000_andhamilnoolgal_android\app\build\intermediates\exploded-aar\com.google.android.gms\play-services-appinvite\8.4.0\AndroidManifest.xml:20:5-30:19
MERGED from [com.google.android.gms:play-services-basement:8.4.0] Z:\Andhamil\Code\Android-Studio-Projects\po00000_andhamilnoolgal_android\app\build\intermediates\exploded-aar\com.google.android.gms\play-services-basement\8.4.0\AndroidManifest.xml:20:5-24:19
MERGED from [com.android.support:support-v4:23.1.1] Z:\Andhamil\Code\Android-Studio-Projects\po00000_andhamilnoolgal_android\app\build\intermediates\exploded-aar\com.android.support\support-v4\23.1.1\AndroidManifest.xml:22:5-20
MERGED from [com.google.android.gms:play-services-appstate:8.4.0] Z:\Andhamil\Code\Android-Studio-Projects\po00000_andhamilnoolgal_android\app\build\intermediates\exploded-aar\com.google.android.gms\play-services-appstate\8.4.0\AndroidManifest.xml:19:5-20
MERGED from [com.google.android.gms:play-services-basement:8.4.0] Z:\Andhamil\Code\Android-Studio-Projects\po00000_andhamilnoolgal_android\app\build\intermediates\exploded-aar\com.google.android.gms\play-services-basement\8.4.0\AndroidManifest.xml:20:5-24:19
MERGED from [com.android.support:support-v4:23.1.1] Z:\Andhamil\Code\Android-Studio-Projects\po00000_andhamilnoolgal_android\app\build\intermediates\exploded-aar\com.android.support\support-v4\23.1.1\AndroidManifest.xml:22:5-20
MERGED from [com.google.android.gms:play-services-auth:8.4.0] Z:\Andhamil\Code\Android-Studio-Projects\po00000_andhamilnoolgal_android\app\build\intermediates\exploded-aar\com.google.android.gms\play-services-auth\8.4.0\AndroidManifest.xml:20:5-32:19
MERGED from [com.google.android.gms:play-services-basement:8.4.0] Z:\Andhamil\Code\Android-Studio-Projects\po00000_andhamilnoolgal_android\app\build\intermediates\exploded-aar\com.google.android.gms\play-services-basement\8.4.0\AndroidManifest.xml:20:5-24:19
MERGED from [com.android.support:support-v4:23.1.1] Z:\Andhamil\Code\Android-Studio-Projects\po00000_andhamilnoolgal_android\app\build\intermediates\exploded-aar\com.android.support\support-v4\23.1.1\AndroidManifest.xml:22:5-20
MERGED from [com.google.android.gms:play-services-basement:8.4.0] Z:\Andhamil\Code\Android-Studio-Projects\po00000_andhamilnoolgal_android\app\build\intermediates\exploded-aar\com.google.android.gms\play-services-basement\8.4.0\AndroidManifest.xml:20:5-24:19
MERGED from [com.android.support:support-v4:23.1.1] Z:\Andhamil\Code\Android-Studio-Projects\po00000_andhamilnoolgal_android\app\build\intermediates\exploded-aar\com.android.support\support-v4\23.1.1\AndroidManifest.xml:22:5-20
MERGED from [com.google.android.gms:play-services-basement:8.4.0] Z:\Andhamil\Code\Android-Studio-Projects\po00000_andhamilnoolgal_android\app\build\intermediates\exploded-aar\com.google.android.gms\play-services-basement\8.4.0\AndroidManifest.xml:20:5-24:19
MERGED from [com.android.support:support-v4:23.1.1] Z:\Andhamil\Code\Android-Studio-Projects\po00000_andhamilnoolgal_android\app\build\intermediates\exploded-aar\com.android.support\support-v4\23.1.1\AndroidManifest.xml:22:5-20
MERGED from [com.google.android.gms:play-services-cast:8.4.0] Z:\Andhamil\Code\Android-Studio-Projects\po00000_andhamilnoolgal_android\app\build\intermediates\exploded-aar\com.google.android.gms\play-services-cast\8.4.0\AndroidManifest.xml:19:5-20
MERGED from [com.google.android.gms:play-services-basement:8.4.0] Z:\Andhamil\Code\Android-Studio-Projects\po00000_andhamilnoolgal_android\app\build\intermediates\exploded-aar\com.google.android.gms\play-services-basement\8.4.0\AndroidManifest.xml:20:5-24:19
MERGED from [com.android.support:support-v4:23.1.1] Z:\Andhamil\Code\Android-Studio-Projects\po00000_andhamilnoolgal_android\app\build\intermediates\exploded-aar\com.android.support\support-v4\23.1.1\AndroidManifest.xml:22:5-20
MERGED from [com.android.support:mediarouter-v7:23.0.0] Z:\Andhamil\Code\Android-Studio-Projects\po00000_andhamilnoolgal_android\app\build\intermediates\exploded-aar\com.android.support\mediarouter-v7\23.0.0\AndroidManifest.xml:22:5-20
MERGED from [com.android.support:appcompat-v7:23.0.1] Z:\Andhamil\Code\Android-Studio-Projects\po00000_andhamilnoolgal_android\app\build\intermediates\exploded-aar\com.android.support\appcompat-v7\23.0.1\AndroidManifest.xml:22:5-20
MERGED from [com.android.support:support-v4:23.1.1] Z:\Andhamil\Code\Android-Studio-Projects\po00000_andhamilnoolgal_android\app\build\intermediates\exploded-aar\com.android.support\support-v4\23.1.1\AndroidManifest.xml:22:5-20
MERGED from [com.google.android.gms:play-services-drive:8.4.0] Z:\Andhamil\Code\Android-Studio-Projects\po00000_andhamilnoolgal_android\app\build\intermediates\exploded-aar\com.google.android.gms\play-services-drive\8.4.0\AndroidManifest.xml:19:5-20
MERGED from [com.google.android.gms:play-services-basement:8.4.0] Z:\Andhamil\Code\Android-Studio-Projects\po00000_andhamilnoolgal_android\app\build\intermediates\exploded-aar\com.google.android.gms\play-services-basement\8.4.0\AndroidManifest.xml:20:5-24:19
MERGED from [com.android.support:support-v4:23.1.1] Z:\Andhamil\Code\Android-Studio-Projects\po00000_andhamilnoolgal_android\app\build\intermediates\exploded-aar\com.android.support\support-v4\23.1.1\AndroidManifest.xml:22:5-20
MERGED from [com.google.android.gms:play-services-fitness:8.4.0] Z:\Andhamil\Code\Android-Studio-Projects\po00000_andhamilnoolgal_android\app\build\intermediates\exploded-aar\com.google.android.gms\play-services-fitness\8.4.0\AndroidManifest.xml:19:5-20
MERGED from [com.google.android.gms:play-services-basement:8.4.0] Z:\Andhamil\Code\Android-Studio-Projects\po00000_andhamilnoolgal_android\app\build\intermediates\exploded-aar\com.google.android.gms\play-services-basement\8.4.0\AndroidManifest.xml:20:5-24:19
MERGED from [com.android.support:support-v4:23.1.1] Z:\Andhamil\Code\Android-Studio-Projects\po00000_andhamilnoolgal_android\app\build\intermediates\exploded-aar\com.android.support\support-v4\23.1.1\AndroidManifest.xml:22:5-20
MERGED from [com.google.android.gms:play-services-location:8.4.0] Z:\Andhamil\Code\Android-Studio-Projects\po00000_andhamilnoolgal_android\app\build\intermediates\exploded-aar\com.google.android.gms\play-services-location\8.4.0\AndroidManifest.xml:19:5-20
MERGED from [com.google.android.gms:play-services-basement:8.4.0] Z:\Andhamil\Code\Android-Studio-Projects\po00000_andhamilnoolgal_android\app\build\intermediates\exploded-aar\com.google.android.gms\play-services-basement\8.4.0\AndroidManifest.xml:20:5-24:19
MERGED from [com.android.support:support-v4:23.1.1] Z:\Andhamil\Code\Android-Studio-Projects\po00000_andhamilnoolgal_android\app\build\intermediates\exploded-aar\com.android.support\support-v4\23.1.1\AndroidManifest.xml:22:5-20
MERGED from [com.google.android.gms:play-services-maps:8.4.0] Z:\Andhamil\Code\Android-Studio-Projects\po00000_andhamilnoolgal_android\app\build\intermediates\exploded-aar\com.google.android.gms\play-services-maps\8.4.0\AndroidManifest.xml:27:5-20
MERGED from [com.google.android.gms:play-services-basement:8.4.0] Z:\Andhamil\Code\Android-Studio-Projects\po00000_andhamilnoolgal_android\app\build\intermediates\exploded-aar\com.google.android.gms\play-services-basement\8.4.0\AndroidManifest.xml:20:5-24:19
MERGED from [com.android.support:support-v4:23.1.1] Z:\Andhamil\Code\Android-Studio-Projects\po00000_andhamilnoolgal_android\app\build\intermediates\exploded-aar\com.android.support\support-v4\23.1.1\AndroidManifest.xml:22:5-20
MERGED from [com.google.android.gms:play-services-games:8.4.0] Z:\Andhamil\Code\Android-Studio-Projects\po00000_andhamilnoolgal_android\app\build\intermediates\exploded-aar\com.google.android.gms\play-services-games\8.4.0\AndroidManifest.xml:19:5-20
MERGED from [com.google.android.gms:play-services-basement:8.4.0] Z:\Andhamil\Code\Android-Studio-Projects\po00000_andhamilnoolgal_android\app\build\intermediates\exploded-aar\com.google.android.gms\play-services-basement\8.4.0\AndroidManifest.xml:20:5-24:19
MERGED from [com.android.support:support-v4:23.1.1] Z:\Andhamil\Code\Android-Studio-Projects\po00000_andhamilnoolgal_android\app\build\intermediates\exploded-aar\com.android.support\support-v4\23.1.1\AndroidManifest.xml:22:5-20
MERGED from [com.google.android.gms:play-services-drive:8.4.0] Z:\Andhamil\Code\Android-Studio-Projects\po00000_andhamilnoolgal_android\app\build\intermediates\exploded-aar\com.google.android.gms\play-services-drive\8.4.0\AndroidManifest.xml:19:5-20
MERGED from [com.google.android.gms:play-services-basement:8.4.0] Z:\Andhamil\Code\Android-Studio-Projects\po00000_andhamilnoolgal_android\app\build\intermediates\exploded-aar\com.google.android.gms\play-services-basement\8.4.0\AndroidManifest.xml:20:5-24:19
MERGED from [com.android.support:support-v4:23.1.1] Z:\Andhamil\Code\Android-Studio-Projects\po00000_andhamilnoolgal_android\app\build\intermediates\exploded-aar\com.android.support\support-v4\23.1.1\AndroidManifest.xml:22:5-20
MERGED from [com.google.android.gms:play-services-gcm:8.4.0] Z:\Andhamil\Code\Android-Studio-Projects\po00000_andhamilnoolgal_android\app\build\intermediates\exploded-aar\com.google.android.gms\play-services-gcm\8.4.0\AndroidManifest.xml:24:5-20
MERGED from [com.google.android.gms:play-services-basement:8.4.0] Z:\Andhamil\Code\Android-Studio-Projects\po00000_andhamilnoolgal_android\app\build\intermediates\exploded-aar\com.google.android.gms\play-services-basement\8.4.0\AndroidManifest.xml:20:5-24:19
MERGED from [com.android.support:support-v4:23.1.1] Z:\Andhamil\Code\Android-Studio-Projects\po00000_andhamilnoolgal_android\app\build\intermediates\exploded-aar\com.android.support\support-v4\23.1.1\AndroidManifest.xml:22:5-20
MERGED from [com.google.android.gms:play-services-measurement:8.4.0] Z:\Andhamil\Code\Android-Studio-Projects\po00000_andhamilnoolgal_android\app\build\intermediates\exploded-aar\com.google.android.gms\play-services-measurement\8.4.0\AndroidManifest.xml:26:5-46:19
MERGED from [com.google.android.gms:play-services-basement:8.4.0] Z:\Andhamil\Code\Android-Studio-Projects\po00000_andhamilnoolgal_android\app\build\intermediates\exploded-aar\com.google.android.gms\play-services-basement\8.4.0\AndroidManifest.xml:20:5-24:19
MERGED from [com.android.support:support-v4:23.1.1] Z:\Andhamil\Code\Android-Studio-Projects\po00000_andhamilnoolgal_android\app\build\intermediates\exploded-aar\com.android.support\support-v4\23.1.1\AndroidManifest.xml:22:5-20
MERGED from [com.google.android.gms:play-services-identity:8.4.0] Z:\Andhamil\Code\Android-Studio-Projects\po00000_andhamilnoolgal_android\app\build\intermediates\exploded-aar\com.google.android.gms\play-services-identity\8.4.0\AndroidManifest.xml:19:5-20
MERGED from [com.google.android.gms:play-services-basement:8.4.0] Z:\Andhamil\Code\Android-Studio-Projects\po00000_andhamilnoolgal_android\app\build\intermediates\exploded-aar\com.google.android.gms\play-services-basement\8.4.0\AndroidManifest.xml:20:5-24:19
MERGED from [com.android.support:support-v4:23.1.1] Z:\Andhamil\Code\Android-Studio-Projects\po00000_andhamilnoolgal_android\app\build\intermediates\exploded-aar\com.android.support\support-v4\23.1.1\AndroidManifest.xml:22:5-20
MERGED from [com.google.android.gms:play-services-location:8.4.0] Z:\Andhamil\Code\Android-Studio-Projects\po00000_andhamilnoolgal_android\app\build\intermediates\exploded-aar\com.google.android.gms\play-services-location\8.4.0\AndroidManifest.xml:19:5-20
MERGED from [com.google.android.gms:play-services-basement:8.4.0] Z:\Andhamil\Code\Android-Studio-Projects\po00000_andhamilnoolgal_android\app\build\intermediates\exploded-aar\com.google.android.gms\play-services-basement\8.4.0\AndroidManifest.xml:20:5-24:19
MERGED from [com.android.support:support-v4:23.1.1] Z:\Andhamil\Code\Android-Studio-Projects\po00000_andhamilnoolgal_android\app\build\intermediates\exploded-aar\com.android.support\support-v4\23.1.1\AndroidManifest.xml:22:5-20
MERGED from [com.google.android.gms:play-services-maps:8.4.0] Z:\Andhamil\Code\Android-Studio-Projects\po00000_andhamilnoolgal_android\app\build\intermediates\exploded-aar\com.google.android.gms\play-services-maps\8.4.0\AndroidManifest.xml:27:5-20
MERGED from [com.google.android.gms:play-services-basement:8.4.0] Z:\Andhamil\Code\Android-Studio-Projects\po00000_andhamilnoolgal_android\app\build\intermediates\exploded-aar\com.google.android.gms\play-services-basement\8.4.0\AndroidManifest.xml:20:5-24:19
MERGED from [com.android.support:support-v4:23.1.1] Z:\Andhamil\Code\Android-Studio-Projects\po00000_andhamilnoolgal_android\app\build\intermediates\exploded-aar\com.android.support\support-v4\23.1.1\AndroidManifest.xml:22:5-20
MERGED from [com.google.android.gms:play-services-maps:8.4.0] Z:\Andhamil\Code\Android-Studio-Projects\po00000_andhamilnoolgal_android\app\build\intermediates\exploded-aar\com.google.android.gms\play-services-maps\8.4.0\AndroidManifest.xml:27:5-20
MERGED from [com.google.android.gms:play-services-basement:8.4.0] Z:\Andhamil\Code\Android-Studio-Projects\po00000_andhamilnoolgal_android\app\build\intermediates\exploded-aar\com.google.android.gms\play-services-basement\8.4.0\AndroidManifest.xml:20:5-24:19
MERGED from [com.android.support:support-v4:23.1.1] Z:\Andhamil\Code\Android-Studio-Projects\po00000_andhamilnoolgal_android\app\build\intermediates\exploded-aar\com.android.support\support-v4\23.1.1\AndroidManifest.xml:22:5-20
MERGED from [com.google.android.gms:play-services-measurement:8.4.0] Z:\Andhamil\Code\Android-Studio-Projects\po00000_andhamilnoolgal_android\app\build\intermediates\exploded-aar\com.google.android.gms\play-services-measurement\8.4.0\AndroidManifest.xml:26:5-46:19
MERGED from [com.google.android.gms:play-services-basement:8.4.0] Z:\Andhamil\Code\Android-Studio-Projects\po00000_andhamilnoolgal_android\app\build\intermediates\exploded-aar\com.google.android.gms\play-services-basement\8.4.0\AndroidManifest.xml:20:5-24:19
MERGED from [com.android.support:support-v4:23.1.1] Z:\Andhamil\Code\Android-Studio-Projects\po00000_andhamilnoolgal_android\app\build\intermediates\exploded-aar\com.android.support\support-v4\23.1.1\AndroidManifest.xml:22:5-20
MERGED from [com.google.android.gms:play-services-nearby:8.4.0] Z:\Andhamil\Code\Android-Studio-Projects\po00000_andhamilnoolgal_android\app\build\intermediates\exploded-aar\com.google.android.gms\play-services-nearby\8.4.0\AndroidManifest.xml:20:5-20
MERGED from [com.google.android.gms:play-services-basement:8.4.0] Z:\Andhamil\Code\Android-Studio-Projects\po00000_andhamilnoolgal_android\app\build\intermediates\exploded-aar\com.google.android.gms\play-services-basement\8.4.0\AndroidManifest.xml:20:5-24:19
MERGED from [com.android.support:support-v4:23.1.1] Z:\Andhamil\Code\Android-Studio-Projects\po00000_andhamilnoolgal_android\app\build\intermediates\exploded-aar\com.android.support\support-v4\23.1.1\AndroidManifest.xml:22:5-20
MERGED from [com.google.android.gms:play-services-panorama:8.4.0] Z:\Andhamil\Code\Android-Studio-Projects\po00000_andhamilnoolgal_android\app\build\intermediates\exploded-aar\com.google.android.gms\play-services-panorama\8.4.0\AndroidManifest.xml:19:5-20
MERGED from [com.google.android.gms:play-services-basement:8.4.0] Z:\Andhamil\Code\Android-Studio-Projects\po00000_andhamilnoolgal_android\app\build\intermediates\exploded-aar\com.google.android.gms\play-services-basement\8.4.0\AndroidManifest.xml:20:5-24:19
MERGED from [com.android.support:support-v4:23.1.1] Z:\Andhamil\Code\Android-Studio-Projects\po00000_andhamilnoolgal_android\app\build\intermediates\exploded-aar\com.android.support\support-v4\23.1.1\AndroidManifest.xml:22:5-20
MERGED from [com.google.android.gms:play-services-plus:8.4.0] Z:\Andhamil\Code\Android-Studio-Projects\po00000_andhamilnoolgal_android\app\build\intermediates\exploded-aar\com.google.android.gms\play-services-plus\8.4.0\AndroidManifest.xml:19:5-20
MERGED from [com.google.android.gms:play-services-basement:8.4.0] Z:\Andhamil\Code\Android-Studio-Projects\po00000_andhamilnoolgal_android\app\build\intermediates\exploded-aar\com.google.android.gms\play-services-basement\8.4.0\AndroidManifest.xml:20:5-24:19
MERGED from [com.android.support:support-v4:23.1.1] Z:\Andhamil\Code\Android-Studio-Projects\po00000_andhamilnoolgal_android\app\build\intermediates\exploded-aar\com.android.support\support-v4\23.1.1\AndroidManifest.xml:22:5-20
MERGED from [com.google.android.gms:play-services-safetynet:8.4.0] Z:\Andhamil\Code\Android-Studio-Projects\po00000_andhamilnoolgal_android\app\build\intermediates\exploded-aar\com.google.android.gms\play-services-safetynet\8.4.0\AndroidManifest.xml:19:5-20
MERGED from [com.google.android.gms:play-services-basement:8.4.0] Z:\Andhamil\Code\Android-Studio-Projects\po00000_andhamilnoolgal_android\app\build\intermediates\exploded-aar\com.google.android.gms\play-services-basement\8.4.0\AndroidManifest.xml:20:5-24:19
MERGED from [com.android.support:support-v4:23.1.1] Z:\Andhamil\Code\Android-Studio-Projects\po00000_andhamilnoolgal_android\app\build\intermediates\exploded-aar\com.android.support\support-v4\23.1.1\AndroidManifest.xml:22:5-20
MERGED from [com.google.android.gms:play-services-vision:8.4.0] Z:\Andhamil\Code\Android-Studio-Projects\po00000_andhamilnoolgal_android\app\build\intermediates\exploded-aar\com.google.android.gms\play-services-vision\8.4.0\AndroidManifest.xml:5:5-20
MERGED from [com.google.android.gms:play-services-basement:8.4.0] Z:\Andhamil\Code\Android-Studio-Projects\po00000_andhamilnoolgal_android\app\build\intermediates\exploded-aar\com.google.android.gms\play-services-basement\8.4.0\AndroidManifest.xml:20:5-24:19
MERGED from [com.android.support:support-v4:23.1.1] Z:\Andhamil\Code\Android-Studio-Projects\po00000_andhamilnoolgal_android\app\build\intermediates\exploded-aar\com.android.support\support-v4\23.1.1\AndroidManifest.xml:22:5-20
MERGED from [com.google.android.gms:play-services-basement:8.4.0] Z:\Andhamil\Code\Android-Studio-Projects\po00000_andhamilnoolgal_android\app\build\intermediates\exploded-aar\com.google.android.gms\play-services-basement\8.4.0\AndroidManifest.xml:20:5-24:19
MERGED from [com.android.support:support-v4:23.1.1] Z:\Andhamil\Code\Android-Studio-Projects\po00000_andhamilnoolgal_android\app\build\intermediates\exploded-aar\com.android.support\support-v4\23.1.1\AndroidManifest.xml:22:5-20
MERGED from [com.google.android.gms:play-services-identity:8.4.0] Z:\Andhamil\Code\Android-Studio-Projects\po00000_andhamilnoolgal_android\app\build\intermediates\exploded-aar\com.google.android.gms\play-services-identity\8.4.0\AndroidManifest.xml:19:5-20
MERGED from [com.google.android.gms:play-services-basement:8.4.0] Z:\Andhamil\Code\Android-Studio-Projects\po00000_andhamilnoolgal_android\app\build\intermediates\exploded-aar\com.google.android.gms\play-services-basement\8.4.0\AndroidManifest.xml:20:5-24:19
MERGED from [com.android.support:support-v4:23.1.1] Z:\Andhamil\Code\Android-Studio-Projects\po00000_andhamilnoolgal_android\app\build\intermediates\exploded-aar\com.android.support\support-v4\23.1.1\AndroidManifest.xml:22:5-20
MERGED from [com.google.android.gms:play-services-maps:8.4.0] Z:\Andhamil\Code\Android-Studio-Projects\po00000_andhamilnoolgal_android\app\build\intermediates\exploded-aar\com.google.android.gms\play-services-maps\8.4.0\AndroidManifest.xml:27:5-20
MERGED from [com.google.android.gms:play-services-basement:8.4.0] Z:\Andhamil\Code\Android-Studio-Projects\po00000_andhamilnoolgal_android\app\build\intermediates\exploded-aar\com.google.android.gms\play-services-basement\8.4.0\AndroidManifest.xml:20:5-24:19
MERGED from [com.android.support:support-v4:23.1.1] Z:\Andhamil\Code\Android-Studio-Projects\po00000_andhamilnoolgal_android\app\build\intermediates\exploded-aar\com.android.support\support-v4\23.1.1\AndroidManifest.xml:22:5-20
MERGED from [com.google.android.gms:play-services-wearable:8.4.0] Z:\Andhamil\Code\Android-Studio-Projects\po00000_andhamilnoolgal_android\app\build\intermediates\exploded-aar\com.google.android.gms\play-services-wearable\8.4.0\AndroidManifest.xml:19:5-20
MERGED from [com.google.android.gms:play-services-basement:8.4.0] Z:\Andhamil\Code\Android-Studio-Projects\po00000_andhamilnoolgal_android\app\build\intermediates\exploded-aar\com.google.android.gms\play-services-basement\8.4.0\AndroidManifest.xml:20:5-24:19
MERGED from [com.android.support:support-v4:23.1.1] Z:\Andhamil\Code\Android-Studio-Projects\po00000_andhamilnoolgal_android\app\build\intermediates\exploded-aar\com.android.support\support-v4\23.1.1\AndroidManifest.xml:22:5-20
MERGED from [com.android.support:appcompat-v7:23.0.1] Z:\Andhamil\Code\Android-Studio-Projects\po00000_andhamilnoolgal_android\app\build\intermediates\exploded-aar\com.android.support\appcompat-v7\23.0.1\AndroidManifest.xml:22:5-20
MERGED from [com.android.support:support-v4:23.1.1] Z:\Andhamil\Code\Android-Studio-Projects\po00000_andhamilnoolgal_android\app\build\intermediates\exploded-aar\com.android.support\support-v4\23.1.1\AndroidManifest.xml:22:5-20
	android:label
		ADDED from Z:\Andhamil\Code\Android-Studio-Projects\po00000_andhamilnoolgal_android\app\src\main\AndroidManifest.xml:26:9-47
	android:allowBackup
		ADDED from Z:\Andhamil\Code\Android-Studio-Projects\po00000_andhamilnoolgal_android\app\src\main\AndroidManifest.xml:24:9-35
	android:icon
		ADDED from Z:\Andhamil\Code\Android-Studio-Projects\po00000_andhamilnoolgal_android\app\src\main\AndroidManifest.xml:25:9-47
	android:theme
		ADDED from Z:\Andhamil\Code\Android-Studio-Projects\po00000_andhamilnoolgal_android\app\src\main\AndroidManifest.xml:27:9-40
activity#andhamil.droid.andhamilnoolgal.ActivitySplash
ADDED from Z:\Andhamil\Code\Android-Studio-Projects\po00000_andhamilnoolgal_android\app\src\main\AndroidManifest.xml:30:9-38:20
	android:label
		ADDED from Z:\Andhamil\Code\Android-Studio-Projects\po00000_andhamilnoolgal_android\app\src\main\AndroidManifest.xml:32:13-53
	android:name
		ADDED from Z:\Andhamil\Code\Android-Studio-Projects\po00000_andhamilnoolgal_android\app\src\main\AndroidManifest.xml:31:13-73
intent-filter#android.intent.action.MAIN+android.intent.category.LAUNCHER
ADDED from Z:\Andhamil\Code\Android-Studio-Projects\po00000_andhamilnoolgal_android\app\src\main\AndroidManifest.xml:33:13-37:29
action#android.intent.action.MAIN
ADDED from Z:\Andhamil\Code\Android-Studio-Projects\po00000_andhamilnoolgal_android\app\src\main\AndroidManifest.xml:34:17-69
	android:name
		ADDED from Z:\Andhamil\Code\Android-Studio-Projects\po00000_andhamilnoolgal_android\app\src\main\AndroidManifest.xml:34:25-66
category#android.intent.category.LAUNCHER
ADDED from Z:\Andhamil\Code\Android-Studio-Projects\po00000_andhamilnoolgal_android\app\src\main\AndroidManifest.xml:36:17-77
	android:name
		ADDED from Z:\Andhamil\Code\Android-Studio-Projects\po00000_andhamilnoolgal_android\app\src\main\AndroidManifest.xml:36:27-74
activity#andhamil.droid.andhamilnoolgal.ActivityHome
ADDED from Z:\Andhamil\Code\Android-Studio-Projects\po00000_andhamilnoolgal_android\app\src\main\AndroidManifest.xml:41:9-45:20
	android:label
		ADDED from Z:\Andhamil\Code\Android-Studio-Projects\po00000_andhamilnoolgal_android\app\src\main\AndroidManifest.xml:44:13-51
	android:configChanges
		ADDED from Z:\Andhamil\Code\Android-Studio-Projects\po00000_andhamilnoolgal_android\app\src\main\AndroidManifest.xml:43:13-74
	android:name
		ADDED from Z:\Andhamil\Code\Android-Studio-Projects\po00000_andhamilnoolgal_android\app\src\main\AndroidManifest.xml:42:13-71
receiver#andhamil.droid.andhamilnoolgal.GCMBroadcastReceiver
ADDED from Z:\Andhamil\Code\Android-Studio-Projects\po00000_andhamilnoolgal_android\app\src\main\AndroidManifest.xml:47:9-55:20
	android:permission
		ADDED from Z:\Andhamil\Code\Android-Studio-Projects\po00000_andhamilnoolgal_android\app\src\main\AndroidManifest.xml:49:13-73
	android:name
		ADDED from Z:\Andhamil\Code\Android-Studio-Projects\po00000_andhamilnoolgal_android\app\src\main\AndroidManifest.xml:48:13-49
intent-filter#andhamil.droid.andhamilnoolgal+com.google.android.c2dm.intent.RECEIVE
ADDED from Z:\Andhamil\Code\Android-Studio-Projects\po00000_andhamilnoolgal_android\app\src\main\AndroidManifest.xml:50:13-54:29
action#com.google.android.c2dm.intent.RECEIVE
ADDED from Z:\Andhamil\Code\Android-Studio-Projects\po00000_andhamilnoolgal_android\app\src\main\AndroidManifest.xml:51:17-81
	android:name
		ADDED from Z:\Andhamil\Code\Android-Studio-Projects\po00000_andhamilnoolgal_android\app\src\main\AndroidManifest.xml:51:25-78
category#andhamil.droid.andhamilnoolgal
ADDED from Z:\Andhamil\Code\Android-Studio-Projects\po00000_andhamilnoolgal_android\app\src\main\AndroidManifest.xml:53:17-75
	android:name
		ADDED from Z:\Andhamil\Code\Android-Studio-Projects\po00000_andhamilnoolgal_android\app\src\main\AndroidManifest.xml:53:27-72
service#andhamil.droid.andhamilnoolgal.GCMMessageHandler
ADDED from Z:\Andhamil\Code\Android-Studio-Projects\po00000_andhamilnoolgal_android\app\src\main\AndroidManifest.xml:57:9-54
	android:name
		ADDED from Z:\Andhamil\Code\Android-Studio-Projects\po00000_andhamilnoolgal_android\app\src\main\AndroidManifest.xml:57:18-51
meta-data#com.google.android.gms.version
ADDED from Z:\Andhamil\Code\Android-Studio-Projects\po00000_andhamilnoolgal_android\app\src\main\AndroidManifest.xml:59:9-61:69
MERGED from [com.google.android.gms:play-services-basement:8.4.0] Z:\Andhamil\Code\Android-Studio-Projects\po00000_andhamilnoolgal_android\app\build\intermediates\exploded-aar\com.google.android.gms\play-services-basement\8.4.0\AndroidManifest.xml:21:9-23:69
MERGED from [com.google.android.gms:play-services-basement:8.4.0] Z:\Andhamil\Code\Android-Studio-Projects\po00000_andhamilnoolgal_android\app\build\intermediates\exploded-aar\com.google.android.gms\play-services-basement\8.4.0\AndroidManifest.xml:21:9-23:69
MERGED from [com.google.android.gms:play-services-basement:8.4.0] Z:\Andhamil\Code\Android-Studio-Projects\po00000_andhamilnoolgal_android\app\build\intermediates\exploded-aar\com.google.android.gms\play-services-basement\8.4.0\AndroidManifest.xml:21:9-23:69
MERGED from [com.google.android.gms:play-services-basement:8.4.0] Z:\Andhamil\Code\Android-Studio-Projects\po00000_andhamilnoolgal_android\app\build\intermediates\exploded-aar\com.google.android.gms\play-services-basement\8.4.0\AndroidManifest.xml:21:9-23:69
MERGED from [com.google.android.gms:play-services-basement:8.4.0] Z:\Andhamil\Code\Android-Studio-Projects\po00000_andhamilnoolgal_android\app\build\intermediates\exploded-aar\com.google.android.gms\play-services-basement\8.4.0\AndroidManifest.xml:21:9-23:69
MERGED from [com.google.android.gms:play-services-basement:8.4.0] Z:\Andhamil\Code\Android-Studio-Projects\po00000_andhamilnoolgal_android\app\build\intermediates\exploded-aar\com.google.android.gms\play-services-basement\8.4.0\AndroidManifest.xml:21:9-23:69
MERGED from [com.google.android.gms:play-services-basement:8.4.0] Z:\Andhamil\Code\Android-Studio-Projects\po00000_andhamilnoolgal_android\app\build\intermediates\exploded-aar\com.google.android.gms\play-services-basement\8.4.0\AndroidManifest.xml:21:9-23:69
MERGED from [com.google.android.gms:play-services-basement:8.4.0] Z:\Andhamil\Code\Android-Studio-Projects\po00000_andhamilnoolgal_android\app\build\intermediates\exploded-aar\com.google.android.gms\play-services-basement\8.4.0\AndroidManifest.xml:21:9-23:69
MERGED from [com.google.android.gms:play-services-basement:8.4.0] Z:\Andhamil\Code\Android-Studio-Projects\po00000_andhamilnoolgal_android\app\build\intermediates\exploded-aar\com.google.android.gms\play-services-basement\8.4.0\AndroidManifest.xml:21:9-23:69
MERGED from [com.google.android.gms:play-services-basement:8.4.0] Z:\Andhamil\Code\Android-Studio-Projects\po00000_andhamilnoolgal_android\app\build\intermediates\exploded-aar\com.google.android.gms\play-services-basement\8.4.0\AndroidManifest.xml:21:9-23:69
MERGED from [com.google.android.gms:play-services-basement:8.4.0] Z:\Andhamil\Code\Android-Studio-Projects\po00000_andhamilnoolgal_android\app\build\intermediates\exploded-aar\com.google.android.gms\play-services-basement\8.4.0\AndroidManifest.xml:21:9-23:69
MERGED from [com.google.android.gms:play-services-basement:8.4.0] Z:\Andhamil\Code\Android-Studio-Projects\po00000_andhamilnoolgal_android\app\build\intermediates\exploded-aar\com.google.android.gms\play-services-basement\8.4.0\AndroidManifest.xml:21:9-23:69
MERGED from [com.google.android.gms:play-services-basement:8.4.0] Z:\Andhamil\Code\Android-Studio-Projects\po00000_andhamilnoolgal_android\app\build\intermediates\exploded-aar\com.google.android.gms\play-services-basement\8.4.0\AndroidManifest.xml:21:9-23:69
MERGED from [com.google.android.gms:play-services-basement:8.4.0] Z:\Andhamil\Code\Android-Studio-Projects\po00000_andhamilnoolgal_android\app\build\intermediates\exploded-aar\com.google.android.gms\play-services-basement\8.4.0\AndroidManifest.xml:21:9-23:69
MERGED from [com.google.android.gms:play-services-basement:8.4.0] Z:\Andhamil\Code\Android-Studio-Projects\po00000_andhamilnoolgal_android\app\build\intermediates\exploded-aar\com.google.android.gms\play-services-basement\8.4.0\AndroidManifest.xml:21:9-23:69
MERGED from [com.google.android.gms:play-services-basement:8.4.0] Z:\Andhamil\Code\Android-Studio-Projects\po00000_andhamilnoolgal_android\app\build\intermediates\exploded-aar\com.google.android.gms\play-services-basement\8.4.0\AndroidManifest.xml:21:9-23:69
MERGED from [com.google.android.gms:play-services-basement:8.4.0] Z:\Andhamil\Code\Android-Studio-Projects\po00000_andhamilnoolgal_android\app\build\intermediates\exploded-aar\com.google.android.gms\play-services-basement\8.4.0\AndroidManifest.xml:21:9-23:69
MERGED from [com.google.android.gms:play-services-basement:8.4.0] Z:\Andhamil\Code\Android-Studio-Projects\po00000_andhamilnoolgal_android\app\build\intermediates\exploded-aar\com.google.android.gms\play-services-basement\8.4.0\AndroidManifest.xml:21:9-23:69
MERGED from [com.google.android.gms:play-services-basement:8.4.0] Z:\Andhamil\Code\Android-Studio-Projects\po00000_andhamilnoolgal_android\app\build\intermediates\exploded-aar\com.google.android.gms\play-services-basement\8.4.0\AndroidManifest.xml:21:9-23:69
MERGED from [com.google.android.gms:play-services-basement:8.4.0] Z:\Andhamil\Code\Android-Studio-Projects\po00000_andhamilnoolgal_android\app\build\intermediates\exploded-aar\com.google.android.gms\play-services-basement\8.4.0\AndroidManifest.xml:21:9-23:69
MERGED from [com.google.android.gms:play-services-basement:8.4.0] Z:\Andhamil\Code\Android-Studio-Projects\po00000_andhamilnoolgal_android\app\build\intermediates\exploded-aar\com.google.android.gms\play-services-basement\8.4.0\AndroidManifest.xml:21:9-23:69
MERGED from [com.google.android.gms:play-services-basement:8.4.0] Z:\Andhamil\Code\Android-Studio-Projects\po00000_andhamilnoolgal_android\app\build\intermediates\exploded-aar\com.google.android.gms\play-services-basement\8.4.0\AndroidManifest.xml:21:9-23:69
MERGED from [com.google.android.gms:play-services-basement:8.4.0] Z:\Andhamil\Code\Android-Studio-Projects\po00000_andhamilnoolgal_android\app\build\intermediates\exploded-aar\com.google.android.gms\play-services-basement\8.4.0\AndroidManifest.xml:21:9-23:69
MERGED from [com.google.android.gms:play-services-basement:8.4.0] Z:\Andhamil\Code\Android-Studio-Projects\po00000_andhamilnoolgal_android\app\build\intermediates\exploded-aar\com.google.android.gms\play-services-basement\8.4.0\AndroidManifest.xml:21:9-23:69
MERGED from [com.google.android.gms:play-services-basement:8.4.0] Z:\Andhamil\Code\Android-Studio-Projects\po00000_andhamilnoolgal_android\app\build\intermediates\exploded-aar\com.google.android.gms\play-services-basement\8.4.0\AndroidManifest.xml:21:9-23:69
MERGED from [com.google.android.gms:play-services-basement:8.4.0] Z:\Andhamil\Code\Android-Studio-Projects\po00000_andhamilnoolgal_android\app\build\intermediates\exploded-aar\com.google.android.gms\play-services-basement\8.4.0\AndroidManifest.xml:21:9-23:69
MERGED from [com.google.android.gms:play-services-basement:8.4.0] Z:\Andhamil\Code\Android-Studio-Projects\po00000_andhamilnoolgal_android\app\build\intermediates\exploded-aar\com.google.android.gms\play-services-basement\8.4.0\AndroidManifest.xml:21:9-23:69
MERGED from [com.google.android.gms:play-services-basement:8.4.0] Z:\Andhamil\Code\Android-Studio-Projects\po00000_andhamilnoolgal_android\app\build\intermediates\exploded-aar\com.google.android.gms\play-services-basement\8.4.0\AndroidManifest.xml:21:9-23:69
MERGED from [com.google.android.gms:play-services-basement:8.4.0] Z:\Andhamil\Code\Android-Studio-Projects\po00000_andhamilnoolgal_android\app\build\intermediates\exploded-aar\com.google.android.gms\play-services-basement\8.4.0\AndroidManifest.xml:21:9-23:69
MERGED from [com.google.android.gms:play-services-basement:8.4.0] Z:\Andhamil\Code\Android-Studio-Projects\po00000_andhamilnoolgal_android\app\build\intermediates\exploded-aar\com.google.android.gms\play-services-basement\8.4.0\AndroidManifest.xml:21:9-23:69
MERGED from [com.google.android.gms:play-services-basement:8.4.0] Z:\Andhamil\Code\Android-Studio-Projects\po00000_andhamilnoolgal_android\app\build\intermediates\exploded-aar\com.google.android.gms\play-services-basement\8.4.0\AndroidManifest.xml:21:9-23:69
	android:value
		ADDED from Z:\Andhamil\Code\Android-Studio-Projects\po00000_andhamilnoolgal_android\app\src\main\AndroidManifest.xml:61:13-66
	android:name
		ADDED from Z:\Andhamil\Code\Android-Studio-Projects\po00000_andhamilnoolgal_android\app\src\main\AndroidManifest.xml:60:13-58
uses-permission#android.permission.ACCESS_NETWORK_STATE
ADDED from [com.google.android.gms:play-services-ads:8.4.0] Z:\Andhamil\Code\Android-Studio-Projects\po00000_andhamilnoolgal_android\app\build\intermediates\exploded-aar\com.google.android.gms\play-services-ads\8.4.0\AndroidManifest.xml:21:5-78
MERGED from [com.google.android.gms:play-services-analytics:8.4.0] Z:\Andhamil\Code\Android-Studio-Projects\po00000_andhamilnoolgal_android\app\build\intermediates\exploded-aar\com.google.android.gms\play-services-analytics\8.4.0\AndroidManifest.xml:22:5-79
MERGED from [com.google.android.gms:play-services-maps:8.4.0] Z:\Andhamil\Code\Android-Studio-Projects\po00000_andhamilnoolgal_android\app\build\intermediates\exploded-aar\com.google.android.gms\play-services-maps\8.4.0\AndroidManifest.xml:20:5-78
MERGED from [com.google.android.gms:play-services-measurement:8.4.0] Z:\Andhamil\Code\Android-Studio-Projects\po00000_andhamilnoolgal_android\app\build\intermediates\exploded-aar\com.google.android.gms\play-services-measurement\8.4.0\AndroidManifest.xml:22:5-79
MERGED from [com.google.android.gms:play-services-maps:8.4.0] Z:\Andhamil\Code\Android-Studio-Projects\po00000_andhamilnoolgal_android\app\build\intermediates\exploded-aar\com.google.android.gms\play-services-maps\8.4.0\AndroidManifest.xml:20:5-78
MERGED from [com.google.android.gms:play-services-maps:8.4.0] Z:\Andhamil\Code\Android-Studio-Projects\po00000_andhamilnoolgal_android\app\build\intermediates\exploded-aar\com.google.android.gms\play-services-maps\8.4.0\AndroidManifest.xml:20:5-78
MERGED from [com.google.android.gms:play-services-measurement:8.4.0] Z:\Andhamil\Code\Android-Studio-Projects\po00000_andhamilnoolgal_android\app\build\intermediates\exploded-aar\com.google.android.gms\play-services-measurement\8.4.0\AndroidManifest.xml:22:5-79
MERGED from [com.google.android.gms:play-services-nearby:8.4.0] Z:\Andhamil\Code\Android-Studio-Projects\po00000_andhamilnoolgal_android\app\build\intermediates\exploded-aar\com.google.android.gms\play-services-nearby\8.4.0\AndroidManifest.xml:19:5-79
MERGED from [com.google.android.gms:play-services-maps:8.4.0] Z:\Andhamil\Code\Android-Studio-Projects\po00000_andhamilnoolgal_android\app\build\intermediates\exploded-aar\com.google.android.gms\play-services-maps\8.4.0\AndroidManifest.xml:20:5-78
	android:name
		ADDED from [com.google.android.gms:play-services-ads:8.4.0] Z:\Andhamil\Code\Android-Studio-Projects\po00000_andhamilnoolgal_android\app\build\intermediates\exploded-aar\com.google.android.gms\play-services-ads\8.4.0\AndroidManifest.xml:21:22-76
activity#com.google.android.gms.ads.AdActivity
ADDED from [com.google.android.gms:play-services-ads:8.4.0] Z:\Andhamil\Code\Android-Studio-Projects\po00000_andhamilnoolgal_android\app\build\intermediates\exploded-aar\com.google.android.gms\play-services-ads\8.4.0\AndroidManifest.xml:26:9-29:64
	android:configChanges
		ADDED from [com.google.android.gms:play-services-ads:8.4.0] Z:\Andhamil\Code\Android-Studio-Projects\po00000_andhamilnoolgal_android\app\build\intermediates\exploded-aar\com.google.android.gms\play-services-ads\8.4.0\AndroidManifest.xml:28:13-122
	android:theme
		ADDED from [com.google.android.gms:play-services-ads:8.4.0] Z:\Andhamil\Code\Android-Studio-Projects\po00000_andhamilnoolgal_android\app\build\intermediates\exploded-aar\com.google.android.gms\play-services-ads\8.4.0\AndroidManifest.xml:29:13-61
	android:name
		ADDED from [com.google.android.gms:play-services-ads:8.4.0] Z:\Andhamil\Code\Android-Studio-Projects\po00000_andhamilnoolgal_android\app\build\intermediates\exploded-aar\com.google.android.gms\play-services-ads\8.4.0\AndroidManifest.xml:27:13-65
activity#com.google.android.gms.ads.purchase.InAppPurchaseActivity
ADDED from [com.google.android.gms:play-services-ads:8.4.0] Z:\Andhamil\Code\Android-Studio-Projects\po00000_andhamilnoolgal_android\app\build\intermediates\exploded-aar\com.google.android.gms\play-services-ads\8.4.0\AndroidManifest.xml:30:9-31:52
	android:theme
		ADDED from [com.google.android.gms:play-services-ads:8.4.0] Z:\Andhamil\Code\Android-Studio-Projects\po00000_andhamilnoolgal_android\app\build\intermediates\exploded-aar\com.google.android.gms\play-services-ads\8.4.0\AndroidManifest.xml:31:13-50
	android:name
		ADDED from [com.google.android.gms:play-services-ads:8.4.0] Z:\Andhamil\Code\Android-Studio-Projects\po00000_andhamilnoolgal_android\app\build\intermediates\exploded-aar\com.google.android.gms\play-services-ads\8.4.0\AndroidManifest.xml:30:19-91
activity#com.google.android.gms.appinvite.PreviewActivity
ADDED from [com.google.android.gms:play-services-appinvite:8.4.0] Z:\Andhamil\Code\Android-Studio-Projects\po00000_andhamilnoolgal_android\app\build\intermediates\exploded-aar\com.google.android.gms\play-services-appinvite\8.4.0\AndroidManifest.xml:21:9-29:20
	android:exported
		ADDED from [com.google.android.gms:play-services-appinvite:8.4.0] Z:\Andhamil\Code\Android-Studio-Projects\po00000_andhamilnoolgal_android\app\build\intermediates\exploded-aar\com.google.android.gms\play-services-appinvite\8.4.0\AndroidManifest.xml:23:17-40
	android:theme
		ADDED from [com.google.android.gms:play-services-appinvite:8.4.0] Z:\Andhamil\Code\Android-Studio-Projects\po00000_andhamilnoolgal_android\app\build\intermediates\exploded-aar\com.google.android.gms\play-services-appinvite\8.4.0\AndroidManifest.xml:24:17-63
	android:name
		ADDED from [com.google.android.gms:play-services-appinvite:8.4.0] Z:\Andhamil\Code\Android-Studio-Projects\po00000_andhamilnoolgal_android\app\build\intermediates\exploded-aar\com.google.android.gms\play-services-appinvite\8.4.0\AndroidManifest.xml:22:17-48
intent-filter#android.intent.category.DEFAULT+com.google.android.gms.appinvite.ACTION_PREVIEW
ADDED from [com.google.android.gms:play-services-appinvite:8.4.0] Z:\Andhamil\Code\Android-Studio-Projects\po00000_andhamilnoolgal_android\app\build\intermediates\exploded-aar\com.google.android.gms\play-services-appinvite\8.4.0\AndroidManifest.xml:25:13-28:29
action#com.google.android.gms.appinvite.ACTION_PREVIEW
ADDED from [com.google.android.gms:play-services-appinvite:8.4.0] Z:\Andhamil\Code\Android-Studio-Projects\po00000_andhamilnoolgal_android\app\build\intermediates\exploded-aar\com.google.android.gms\play-services-appinvite\8.4.0\AndroidManifest.xml:26:17-89
	android:name
		ADDED from [com.google.android.gms:play-services-appinvite:8.4.0] Z:\Andhamil\Code\Android-Studio-Projects\po00000_andhamilnoolgal_android\app\build\intermediates\exploded-aar\com.google.android.gms\play-services-appinvite\8.4.0\AndroidManifest.xml:26:25-87
category#android.intent.category.DEFAULT
ADDED from [com.google.android.gms:play-services-appinvite:8.4.0] Z:\Andhamil\Code\Android-Studio-Projects\po00000_andhamilnoolgal_android\app\build\intermediates\exploded-aar\com.google.android.gms\play-services-appinvite\8.4.0\AndroidManifest.xml:27:17-75
	android:name
		ADDED from [com.google.android.gms:play-services-appinvite:8.4.0] Z:\Andhamil\Code\Android-Studio-Projects\po00000_andhamilnoolgal_android\app\build\intermediates\exploded-aar\com.google.android.gms\play-services-appinvite\8.4.0\AndroidManifest.xml:27:27-73
activity#com.google.android.gms.auth.api.signin.internal.SignInHubActivity
ADDED from [com.google.android.gms:play-services-auth:8.4.0] Z:\Andhamil\Code\Android-Studio-Projects\po00000_andhamilnoolgal_android\app\build\intermediates\exploded-aar\com.google.android.gms\play-services-auth\8.4.0\AndroidManifest.xml:21:9-24:46
	android:excludeFromRecents
		ADDED from [com.google.android.gms:play-services-auth:8.4.0] Z:\Andhamil\Code\Android-Studio-Projects\po00000_andhamilnoolgal_android\app\build\intermediates\exploded-aar\com.google.android.gms\play-services-auth\8.4.0\AndroidManifest.xml:23:19-52
	android:exported
		ADDED from [com.google.android.gms:play-services-auth:8.4.0] Z:\Andhamil\Code\Android-Studio-Projects\po00000_andhamilnoolgal_android\app\build\intermediates\exploded-aar\com.google.android.gms\play-services-auth\8.4.0\AndroidManifest.xml:24:19-43
	android:theme
		ADDED from [com.google.android.gms:play-services-auth:8.4.0] Z:\Andhamil\Code\Android-Studio-Projects\po00000_andhamilnoolgal_android\app\build\intermediates\exploded-aar\com.google.android.gms\play-services-auth\8.4.0\AndroidManifest.xml:22:19-78
	android:name
		ADDED from [com.google.android.gms:play-services-auth:8.4.0] Z:\Andhamil\Code\Android-Studio-Projects\po00000_andhamilnoolgal_android\app\build\intermediates\exploded-aar\com.google.android.gms\play-services-auth\8.4.0\AndroidManifest.xml:21:19-72
service#com.google.android.gms.auth.api.signin.RevocationBoundService
ADDED from [com.google.android.gms:play-services-auth:8.4.0] Z:\Andhamil\Code\Android-Studio-Projects\po00000_andhamilnoolgal_android\app\build\intermediates\exploded-aar\com.google.android.gms\play-services-auth\8.4.0\AndroidManifest.xml:28:9-31:110
	android:exported
		ADDED from [com.google.android.gms:play-services-auth:8.4.0] Z:\Andhamil\Code\Android-Studio-Projects\po00000_andhamilnoolgal_android\app\build\intermediates\exploded-aar\com.google.android.gms\play-services-auth\8.4.0\AndroidManifest.xml:30:13-36
	android:permission
		ADDED from [com.google.android.gms:play-services-auth:8.4.0] Z:\Andhamil\Code\Android-Studio-Projects\po00000_andhamilnoolgal_android\app\build\intermediates\exploded-aar\com.google.android.gms\play-services-auth\8.4.0\AndroidManifest.xml:31:13-107
	android:name
		ADDED from [com.google.android.gms:play-services-auth:8.4.0] Z:\Andhamil\Code\Android-Studio-Projects\po00000_andhamilnoolgal_android\app\build\intermediates\exploded-aar\com.google.android.gms\play-services-auth\8.4.0\AndroidManifest.xml:29:13-62
uses-feature#0x00020000
ADDED from [com.google.android.gms:play-services-maps:8.4.0] Z:\Andhamil\Code\Android-Studio-Projects\po00000_andhamilnoolgal_android\app\build\intermediates\exploded-aar\com.google.android.gms\play-services-maps\8.4.0\AndroidManifest.xml:22:5-24:33
MERGED from [com.google.android.gms:play-services-maps:8.4.0] Z:\Andhamil\Code\Android-Studio-Projects\po00000_andhamilnoolgal_android\app\build\intermediates\exploded-aar\com.google.android.gms\play-services-maps\8.4.0\AndroidManifest.xml:22:5-24:33
MERGED from [com.google.android.gms:play-services-maps:8.4.0] Z:\Andhamil\Code\Android-Studio-Projects\po00000_andhamilnoolgal_android\app\build\intermediates\exploded-aar\com.google.android.gms\play-services-maps\8.4.0\AndroidManifest.xml:22:5-24:33
MERGED from [com.google.android.gms:play-services-maps:8.4.0] Z:\Andhamil\Code\Android-Studio-Projects\po00000_andhamilnoolgal_android\app\build\intermediates\exploded-aar\com.google.android.gms\play-services-maps\8.4.0\AndroidManifest.xml:22:5-24:33
	android:glEsVersion
		ADDED from [com.google.android.gms:play-services-maps:8.4.0] Z:\Andhamil\Code\Android-Studio-Projects\po00000_andhamilnoolgal_android\app\build\intermediates\exploded-aar\com.google.android.gms\play-services-maps\8.4.0\AndroidManifest.xml:23:8-40
	android:required
		ADDED from [com.google.android.gms:play-services-maps:8.4.0] Z:\Andhamil\Code\Android-Studio-Projects\po00000_andhamilnoolgal_android\app\build\intermediates\exploded-aar\com.google.android.gms\play-services-maps\8.4.0\AndroidManifest.xml:24:8-31
provider#com.google.android.gms.measurement.AppMeasurementContentProvider
ADDED from [com.google.android.gms:play-services-measurement:8.4.0] Z:\Andhamil\Code\Android-Studio-Projects\po00000_andhamilnoolgal_android\app\build\intermediates\exploded-aar\com.google.android.gms\play-services-measurement\8.4.0\AndroidManifest.xml:28:7-31:37
MERGED from [com.google.android.gms:play-services-measurement:8.4.0] Z:\Andhamil\Code\Android-Studio-Projects\po00000_andhamilnoolgal_android\app\build\intermediates\exploded-aar\com.google.android.gms\play-services-measurement\8.4.0\AndroidManifest.xml:28:7-31:37
	android:authorities
		ADDED from [com.google.android.gms:play-services-measurement:8.4.0] Z:\Andhamil\Code\Android-Studio-Projects\po00000_andhamilnoolgal_android\app\build\intermediates\exploded-aar\com.google.android.gms\play-services-measurement\8.4.0\AndroidManifest.xml:29:11-76
	android:exported
		ADDED from [com.google.android.gms:play-services-measurement:8.4.0] Z:\Andhamil\Code\Android-Studio-Projects\po00000_andhamilnoolgal_android\app\build\intermediates\exploded-aar\com.google.android.gms\play-services-measurement\8.4.0\AndroidManifest.xml:31:11-35
	android:name
		ADDED from [com.google.android.gms:play-services-measurement:8.4.0] Z:\Andhamil\Code\Android-Studio-Projects\po00000_andhamilnoolgal_android\app\build\intermediates\exploded-aar\com.google.android.gms\play-services-measurement\8.4.0\AndroidManifest.xml:30:11-90
receiver#com.google.android.gms.measurement.AppMeasurementReceiver
ADDED from [com.google.android.gms:play-services-measurement:8.4.0] Z:\Andhamil\Code\Android-Studio-Projects\po00000_andhamilnoolgal_android\app\build\intermediates\exploded-aar\com.google.android.gms\play-services-measurement\8.4.0\AndroidManifest.xml:33:7-39:18
MERGED from [com.google.android.gms:play-services-measurement:8.4.0] Z:\Andhamil\Code\Android-Studio-Projects\po00000_andhamilnoolgal_android\app\build\intermediates\exploded-aar\com.google.android.gms\play-services-measurement\8.4.0\AndroidManifest.xml:33:7-39:18
	android:enabled
		ADDED from [com.google.android.gms:play-services-measurement:8.4.0] Z:\Andhamil\Code\Android-Studio-Projects\po00000_andhamilnoolgal_android\app\build\intermediates\exploded-aar\com.google.android.gms\play-services-measurement\8.4.0\AndroidManifest.xml:35:11-33
	android:name
		ADDED from [com.google.android.gms:play-services-measurement:8.4.0] Z:\Andhamil\Code\Android-Studio-Projects\po00000_andhamilnoolgal_android\app\build\intermediates\exploded-aar\com.google.android.gms\play-services-measurement\8.4.0\AndroidManifest.xml:34:11-83
intent-filter#com.google.android.gms.measurement.UPLOAD
ADDED from [com.google.android.gms:play-services-measurement:8.4.0] Z:\Andhamil\Code\Android-Studio-Projects\po00000_andhamilnoolgal_android\app\build\intermediates\exploded-aar\com.google.android.gms\play-services-measurement\8.4.0\AndroidManifest.xml:36:9-38:25
action#com.google.android.gms.measurement.UPLOAD
ADDED from [com.google.android.gms:play-services-measurement:8.4.0] Z:\Andhamil\Code\Android-Studio-Projects\po00000_andhamilnoolgal_android\app\build\intermediates\exploded-aar\com.google.android.gms\play-services-measurement\8.4.0\AndroidManifest.xml:37:11-77
	android:name
		ADDED from [com.google.android.gms:play-services-measurement:8.4.0] Z:\Andhamil\Code\Android-Studio-Projects\po00000_andhamilnoolgal_android\app\build\intermediates\exploded-aar\com.google.android.gms\play-services-measurement\8.4.0\AndroidManifest.xml:37:19-75
service#com.google.android.gms.measurement.AppMeasurementService
ADDED from [com.google.android.gms:play-services-measurement:8.4.0] Z:\Andhamil\Code\Android-Studio-Projects\po00000_andhamilnoolgal_android\app\build\intermediates\exploded-aar\com.google.android.gms\play-services-measurement\8.4.0\AndroidManifest.xml:41:7-44:37
MERGED from [com.google.android.gms:play-services-measurement:8.4.0] Z:\Andhamil\Code\Android-Studio-Projects\po00000_andhamilnoolgal_android\app\build\intermediates\exploded-aar\com.google.android.gms\play-services-measurement\8.4.0\AndroidManifest.xml:41:7-44:37
	android:enabled
		ADDED from [com.google.android.gms:play-services-measurement:8.4.0] Z:\Andhamil\Code\Android-Studio-Projects\po00000_andhamilnoolgal_android\app\build\intermediates\exploded-aar\com.google.android.gms\play-services-measurement\8.4.0\AndroidManifest.xml:43:11-33
	android:exported
		ADDED from [com.google.android.gms:play-services-measurement:8.4.0] Z:\Andhamil\Code\Android-Studio-Projects\po00000_andhamilnoolgal_android\app\build\intermediates\exploded-aar\com.google.android.gms\play-services-measurement\8.4.0\AndroidManifest.xml:44:11-35
	android:name
		ADDED from [com.google.android.gms:play-services-measurement:8.4.0] Z:\Andhamil\Code\Android-Studio-Projects\po00000_andhamilnoolgal_android\app\build\intermediates\exploded-aar\com.google.android.gms\play-services-measurement\8.4.0\AndroidManifest.xml:42:11-82
